link,count,n_users
https://redditsave.com/info?url=/r/TIHI/comments/l9bdw3/thanks_i_hate_johnny_depp_replacing_amber_heard/,1,1
https://np.reddit.com/user/SaveVideo/comments/jv323v/info/,1,1
https://np.reddit.com/message/compose/?to=Kryptonh&subject=Feedback,2,2
https://ko-fi.com/getvideo,2,2
https://np.reddit.com/message/compose/?to=Kryptonh&subject=Content,2,2
https://np.reddit.com//r/TIHI/comments/l9bdw3/thanks_i_hate_johnny_depp_replacing_amber_heard/,1,1
https://np.reddit.com/r/Hornyjail/top/?sort=top&t=all,1,1
https://i.redd.it/u1q0erv2gar51.jpg,1,1
https://np.reddit.com/r/Hornyjail/comments/j5kll1/i_heard_that_zip/,1,1
https://v.redd.it/fqweu5c334261,1,1
https://np.reddit.com/r/Hornyjail/comments/k33hv6/no_more_horny_jails/,1,1
https://i.redd.it/27vpa3bda7h51.jpg,1,1
https://np.reddit.com/r/Hornyjail/comments/iakjex/this_is_max_level_horny/,1,1
https://www.reddit.com/message/compose/?to=sneakpeekbot,3,1
https://np.reddit.com/r/sneakpeekbot/,3,1
https://np.reddit.com/r/sneakpeekbot/comments/joo7mb/blacklist_viii/,3,1
https://discord.gg/WVvXFmPQaz,2,1
https://redditmc.com/,2,1
https://www.reddit.com/r/funny/wiki/rules,1,1
https://www.reddit.com/r/funny/wiki/rules#wiki_rule_2.3A_no_memes_or_memetic_content_of_any_kind,1,1
https://www.reddit.com/message/compose?to=%2Fr%2Ffunny,1,1
https://jerkofftocelebs.com/actors/,128,1
https://jerkofftocelebs.com/pictures/,128,1
https://reddit.com/r/JerkOffToGermanCelebs/,128,1
https://jerkofftocelebs.com/,139,1
https://discord.gg/FMhrH2j,139,1
https://jerkofftocelebs.com/reddit-nsfw-list/,128,1
http://www.reddit.com/r/AskReddit/wiki/index#wiki_-rule_1-,11,1
"http://www.reddit.com/message/compose?to=%2Fr%2FAskReddit&subject=Rule+1+Post+Review+Request&message=My+post+was+removed+Rule+1,+please+review%3a%0d%0a%0d%0ahttp%3A%2F%2Fwww.reddit.com/r/AskReddit/comments/l7arqx/what_will_happen_to_the_economy_if_reddit_keeps/",1,1
https://www.reddit.com/r/AskReddit/wiki/index#wiki_-rule_3-,16,1
http://www.reddit.com/r/AskReddit/wiki/index#wiki_-rule_5-,2,1
http://www.reddit.com/r/AskReddit/wiki/index#wiki_-rule_3-,1,1
http://www.reddit.com/r/AskReddit/about/sidebar,1,1
"http://www.reddit.com/message/compose?to=%2Fr%2FAskReddit&subject=Help+Related+Post+Review+Request&message=My+post+was+removed+for+being+help+related,+please+review%3a%0d%0a%0d%0ahttp%3A%2F%2Fwww.reddit.com/r/AskReddit/comments/l3wlox/redditors_does_anyone_have_some_hilarious_amber/",1,1
https://www.youtube.com/watch?v=tybOcw3gQzc&t=243s,2,1
https://jerkofftocelebs.com/actor/emma-stone/,1,1
https://jerkofftocelebs.com/pictures/nggallery/pictures/emma-stone,1,1
https://www.reddit.com/r/EmmaStone/,1,1
https://www.reddit.com/poll/l1qz4k,1,1
https://new.reddit.com/r/CelebbattlePolls/comments/l1qz4k/my_top_6random_order_natalie_portman_vs_emily/,1,1
https://redd.it/e0a4mn,31,1
https://www.instagram.com/celebtag,31,1
https://www.bbc.com/news/uk-54779430,2,1
https://reddit.com/message/compose?to=/r/dankmemes,5,1
https://dankahoot.com/blame?id=l0d1y3,1,1
https://www.reddit.com/user/ReShout876,1,1
https://i.redd.it/ktgsqlb6l3c61.png,1,1
https://redd.it/kzv8fr,1,1
http://www.wolframalpha.com/input/?i=2021-01-19%2002:14:52%20UTC%20To%20Local%20Time,1,1
https://np.reddit.com/r/bodylanguage/comments/kzinmc/what_are_your_thoughts_on_the_body_language_in/gjoei3e/?context=3,1,1
https://np.reddit.com/message/compose/?to=RemindMeBot&subject=Reminder&message=%5Bhttps%3A%2F%2Fwww.reddit.com%2Fr%2Fbodylanguage%2Fcomments%2Fkzinmc%2Fwhat_are_your_thoughts_on_the_body_language_in%2Fgjoei3e%2F%5D%0A%0ARemindMe%21%202021-01-19%2002%3A14%3A52%20UTC,1,1
https://np.reddit.com/message/compose/?to=RemindMeBot&subject=Delete%20Comment&message=Delete%21%20kzinmc,1,1
https://np.reddit.com/r/RemindMeBot/comments/e1bko7/remindmebot_info_v21/,1,1
https://np.reddit.com/message/compose/?to=RemindMeBot&subject=Reminder&message=%5BLink%20or%20message%20inside%20square%20brackets%5D%0A%0ARemindMe%21%20Time%20period%20here,1,1
https://np.reddit.com/message/compose/?to=RemindMeBot&subject=List%20Of%20Reminders&message=MyReminders%21,1,1
https://np.reddit.com/message/compose/?to=Watchful1&subject=RemindMeBot%20Feedback,1,1
https://m.huffingtonpost.ca/2016/07/15/amber-heard-most-beautiful_n_11014310.html,1,1
https://www.msn.com/en-us/movies/news/these-are-the-most-handsome-men-in-the-world-according-to-science/ss-BB17cAan#image=21,1,1
https://dictionary.cambridge.org/dictionary/english/gold-digger,1,1
https://en.wikipedia.org/wiki/Gold_digger,1,1
https://www.collinsdictionary.com/us/dictionary/english/gold-digger,1,1
https://www.dictionary.com/browse/gold--digger,1,1
https://www.vocabulary.com/dictionary/gold%20digger,1,1
https://www.macmillandictionary.com/us/dictionary/american/gold-digger,1,1
https://www.thefreedictionary.com/gold+digger,1,1
https://youtu.be/6vwNcNOTVzY,1,1
https://twitter.com/winonasrider/status/1223371981296455680,10,1
https://www.reddit.com/r/AmputatorBot/comments/ehrq3z/why_did_i_build_amputatorbot,27,1
https://metro.co.uk/2020/07/08/johnny-depp-joked-f-amber-heards-burnt-corpse-texts-paul-bettany-12963268/,2,1
https://www.reddit.com/r/AmputatorBot/comments/cchly3/you_can_now_summon_amputatorbot/,9,1
https://vanguardia.com.mx/articulo/no-hay-mayores-noticias-sobre-detencion-de-raul-julia,2,1
https://www.imdb.com/name/nm1038376/,1,1
https://www.imdb.com/name/nm0432178/,1,1
https://pagesix.com/2020/07/10/johnny-depp-said-he-called-wife-a-turd-after-she-pooped-in-their-bed/,2,1
https://www.imdb.com/name/nm0430107/,1,1
https://www.imdb.com/name/nm0003044/,1,1
https://www.nickwallis.com/depp-trial,2,1
https://www.fairfaxcounty.gov/circuit/high-profile-cases,2,1
https://www.ifod.net/thetruth/,2,1
https://www.reddit.com/r/EntitledBitch/comments/ktkm8u/fuck\_amber\_heard/,1,1
https://www.reddit.com/r/EntitledBitch/comments/ktkm8u/fuck_amber_heard/,1,1
https://www.reddit.com/r/FUCKYOUINPARTICULAR/wiki/content,1,1
https://reddit.com/message/compose?to=%2Fr%2FFUCKYOUINPARTICULAR,1,1
https://kotakuinaction2.win,4,1
https://saidit.net/s/KotakuInAction,4,1
https://poal.co/s/KotakuInAction,4,1
https://www.reddit.com/r/Debate,1,1
https://www.reddit.com/r/changemyview,1,1
https://www.reddit.com/r/AmItheAsshole/about/rules,2,1
https://www.reddit.com/message/compose/?to=/r/amitheasshole&subject=/r/AmItheAsshole&message=Please+link+to+post+or+comment+for+context+,2,1
https://www.reddit.com/r/AmItheAsshole/wiki/faq,3,2
https://www.reddit.com/r/AmItheAsshole/wiki/faq#wiki_post_deletion,1,1
https://www.reddit.com/message/compose?to=%2Fr%2FAmItheAsshole,1,1
https://www.reddit.com/r/AmItheAsshole/wiki/faq#wiki_what.2019s_with_these_acronyms.3F_what_do_they_mean.3F,1,1
https://www.reddit.com/r/AmItheAsshole/about/rules/,1,1
https://www.reddit.com/message/compose/?to=/r/AmItheAsshole,1,1
https://github.com/Artraxon/unexBot,1,1
https://www.reddit.com/r/Unexpected/comments/dnuaju/introducing_unexbot_a_new_bot_to_improve_the/,1,1
https://www.reddit.com/message/compose?to=%2Fr%2Fcursedcomments&subject=&message=Please,2,1
https://discord.gg/tDzGCfc,2,1
https://bit.ly/2VcIh9g,2,1
https://bit.ly/2W09Ebb,2,1
https://www.reddit.com/r/Showerthoughts/wiki/rules,1,1
https://www.reddit.com/r/Showerthoughts/wiki/faq,1,1
https://www.reddit.com/r/Showerthoughts/wiki/t0q,1,1
"http://www.reddit.com/message/compose?to=%2Fr%2FAskReddit&subject=Rule+1+Post+Review+Request&message=My+post+was+removed+Rule+1,+please+review%3a%0d%0a%0d%0ahttp%3A%2F%2Fwww.reddit.com/r/AskReddit/comments/kty9yg/people_who_have_cases_in_multiple_courts_why/",1,1
http://www.purpleberets.org/violence\_tempongko.html,1,1
http://www.purpleberets.org/violence_tempongko.html,1,1
https://www.thehotline.org/resources/the-myth-of-mutual-abuse/,2,1
https://np.reddit.com/r/confidentlyincorrect/top/?sort=top&t=all,1,1
https://i.redd.it/kk46agjgz7q51.png,1,1
https://np.reddit.com/r/confidentlyincorrect/comments/j2g49k/thank_god_im_a_math_major/,1,1
https://i.redd.it/r7h7unyoh7461.jpg,1,1
https://np.reddit.com/r/confidentlyincorrect/comments/k9xo15/the_president_of_the_united_states_totally/,1,1
https://i.redd.it/w70y1akisnq51.jpg,1,1
https://np.reddit.com/r/confidentlyincorrect/comments/j3s5cv/despite_all_the_warnings_and_guidelines_these/,1,1
https://news.sky.com/story/johnny-depp-trial-distressing-audio-of-actor-asking-ex-wife-amber-heard-to-cut-him-played-in-court-12025935,1,1
"https://www.theguardian.com/film/2020/nov/02/johnny-depp-trial-how-the-judge-ruled-on-14-alleged-assaults#:~:text=The%20judge%20in%20the%20Johnny,proved%20to%20the%20civil%20standard%E2%80%9D",1,1
https://www.bbc.co.uk/news/entertainment-arts-44778997,2,1
https://www.hollywoodreporter.com/amp/features/hes-radioactive-inside-johnny-depps-self-made-implosion,4,2
https://youtu.be/uTAVHY0flJo,1,1
https://www.google.com/amp/s/www.dailymail.co.uk/news/article-8171963/amp/Amber-Heard-hired-private-investigator-dig-dirt-Johnny-Depp-nasty-legal-battle.html,1,1
https://www.google.com/amp/s/www.hollywoodreporter.com/amp/features/amber-heard-aquaman-elon-musk-dedication-activism-1166004,1,1
https://www.google.com/amp/s/www.hollywoodreporter.com/amp/thr-esq/city-lies-script-supervisor-defends-johnny-depp-lawsuit-alleged-set-attack-1137854,1,1
https://theblast.com/c/johnny-depp-selfie-photo-evidence-assault-lawsuit-rocky-brooks-trial,2,2
https://www.judiciary.uk/wp-content/uploads/2020/11/Judgment-FINAL.pdf,1,1
https://80b08171-ce73-4488-b369-fe3934b0504a.filesusr.com/ugd/5df505_4ccfb81ee10a498cbca176e83b6a5d02.pdf,1,1
https://redd.it/7pysyp,1,1
https://redd.it/jri8yi,1,1
"https://www.reddit.com/message/compose/?to=RepostSleuthBot&subject=False%20Positive&message={""post_id",1,1
https://www.repostsleuth.com?postId=ks31j7&sameSub=false&filterOnlyOlder=true&memeFilter=true&filterDeadMatches=true&targetImageMatch=86&targetImageMemeMatch=96,1,1
https://youtu.be/Cg9SvQSMnoE,1,1
https://youtu.be/EhnKxb99Li8,1,1
http://www.reddit.com/r/OutOfTheLoop/about/sidebar,1,1
http://www.reddit.com/r/OutOfTheLoop/about/rules,1,1
https://www.reddit.com/message/compose?to=/r/OutOfTheLoop&subject=&message=,1,1
https://youtu.be/PbXTr41ZFTQ,1,1
https://youtu.be/V7lg69VFSY8,1,1
https://www.reddit.com/r/HolUp/comments/kn9k0u/best_and_worst_of_rholup_2020/,1,1
https://discord.gg/Fz86Xvm,1,1
https://www.reddit.com/r/NoahGetTheBoat/wiki/rules,2,2
https://www.reddit.com/r/NoahGetTheBoat/comments/fgmg3t/guidelines_for_the_subreddit_read_and_follow_the/,1,1
https://www.reddit.com/r/NoahGetTheBoat/comments/ke52r5/wtf_is_wrong_with_the_world/,1,1
https://i.redd.it/t7r10lra9i561.jpg,1,1
https://www.reddit.com/r/NoahGetTheBoat/new/,1,1
https://www.reddit.com/r/NoahGetTheBoat/top/?sort=top&t=week,1,1
https://deadline.com/2021/01/johnny-depp-abuse-lawsuit-amber-heard-charitable-donations-disputed-divorce-1234667028/,2,1
https://i.imgur.com/KqhS0av.jpg,1,1
https://i.imgur.com/l66yaIl.jpg,1,1
https://i.imgur.com/uM8eTPz.jpg,1,1
https://dankahoot.com/blame?id=kqbbju,1,1
https://www.sausageroll.com.au/lifestyle/celebrities/amber-heard-reportedly-stole-withheld-millions-from-a-childrens-hospital/,2,1
https://www.reddit.com/r/DC_Cinematic/wiki/rules#wiki_rule_8,2,1
https://www.reddit.com/r/DC_Cinematic/wiki/fancasting,2,1
https://jerkofftoporn.com/p/view_video.php?viewkey=ph5b663f5799e5d,4,1
https://www.reddit.com/r/GalGadot/,4,1
https://jerkofftocelebs.com/actor/margot-robbie/,4,1
https://jerkofftocelebs.com/pictures/nggallery/pictures/margot-robbie,4,1
https://www.reddit.com/r/MargotRobbie/,4,1
https://redd.it/jr9z3v,1,1
"https://www.reddit.com/message/compose/?to=RepostSleuthBot&subject=False%20Negative&message={""post_id",1,1
https://www.repostsleuth.com?postId=kpbsbr&sameSub=false&filterOnlyOlder=true&memeFilter=true&filterDeadMatches=true&targetImageMatch=86&targetImageMemeMatch=96,1,1
https://www.reddit.com/r/TranscribersOfReddit/wiki/checklist,1,1
https://www.reddit.com/r/TranscribersOfReddit/wiki/formats/images/no_text,1,1
https://www.reddit.com/r/TranscribersOfReddit/wiki/formats/images/text,1,1
https://www.reddit.com/r/TranscribersOfReddit/wiki/formats/images/greentext,1,1
https://www.reddit.com/r/TranscribersOfReddit/wiki/formats/images/reddit,1,1
https://www.reddit.com/r/TranscribersOfReddit/wiki/formats/images/socialmedia,1,1
https://www.reddit.com/r/TranscribersOfReddit/wiki/formats/images/comics,1,1
https://www.reddit.com/r/TranscribersOfReddit/wiki/formats/images/gifs,1,1
https://www.reddit.com/r/TranscribersOfReddit/wiki/formats/images/textmessages,1,1
https://www.reddit.com/r/TranscribersOfReddit/wiki/formats/images/code,1,1
https://www.reddit.com/r/TranscribersOfReddit/wiki/formats/images/meme,1,1
https://www.reddit.com/r/TranscribersOfReddit/wiki/formats/images/quora,1,1
https://www.reddit.com/r/TranscribersOfReddit/wiki/formats/images/polls,1,1
https://www.reddit.com/r/TranscribersOfReddit/wiki/formats/images/other,1,1
https://www.reddit.com/r/TranscribersOfReddit/wiki/examples/images,1,1
https://www.reddit.com/message/compose?to=%2Fr%2FTranscribersOfReddit&subject=General%20Question&message=,1,1
https://www.reddit.com/r/TranscribersOfReddit/wiki/index,4,2
https://github.com/GrafeasGroup/tor,3,2
https://www.reddit.com/message/compose?to=%2Fr%2FTranscribersOfReddit&subject=Bot%20Question&message=,3,2
https://dankahoot.com/blame?id=ko9zmj,1,1
https://np.reddit.com/r/ComedyNecrophilia/top/?sort=top&t=year,1,1
https://i.redd.it/kfmhrtmuksz51.png,1,1
https://np.reddit.com/r/ComedyNecrophilia/comments/jvrym6/1_wait_for_it_to_rain/,1,1
https://i.redd.it/f60m8v16uwh41.jpg,1,1
https://np.reddit.com/r/ComedyNecrophilia/comments/f6dfw8/i_am_epic_sex_man/,1,1
https://i.redd.it/gbh98lwfv6061.jpg,1,1
https://np.reddit.com/r/ComedyNecrophilia/comments/jx1ofa/extra_downwards_thrust/,1,1
https://redditsave.com/info?url=/r/JerkOffToCelebs/comments/jl3rfa/straining_inside_my_pants_thinking_about_this/,1,1
https://np.reddit.com/user/GetVideoBot/comments/iiea4t/info/,1,1
https://img.thewhiskyexchange.com/900/blend_bla1.jpg,1,1
https://img.thewhiskyexchange.com/900/carob.12yov1.jpg,1,1
https://www.forbes.com/sites/keithflamer/2021/12/31/game-of-thrones-actress-emilia-clarke-sells-venice-california-home-for-44-million/,4,1
https://np.reddit.com/user/NoGoogleAMPBot/comments/lbz2sg/faq/,5,1
https://github.com/laurinneff/no-google-amp-bot,7,1
https://github.com/laurinneff/no-google-amp-bot/issues,7,1
https://www.judiciary.uk/wp-content/uploads/2020/11/Depp_V_News_Group_Newspapers_Ltd_judgment.pdf,3,2
https://amp.theguardian.com/film/2020/feb/27/johnny-depp-amber-heard-threats-to-ex-wife-in-texts-london-high-court,1,1
https://www.judiciary.uk/wp-content/uploads/2020/11/Depp\_V\_News\_Group\_Newspapers\_Ltd\_judgment.pdf,1,1
https://www.bbc.com/news/entertainment-arts-54506759,5,2
https://in.style.yahoo.com/aquaman-2-amber-heard-fired-102634951.html,2,1
https://www.google.com/amp/s/www.washingtonpost.com/politics/2020/10/16/this-summers-black-lives-matter-protesters-were-overwhelming-peaceful-our-research-finds/%3FoutputType%3Damp,1,1
https://mobile.twitter.com/ginacarano/status/1327806477923323904/photo/1,1,1
https://www.washingtonpost.com/politics/2020/10/16/this-summers-black-lives-matter-protesters-were-overwhelming-peaceful-our-research-finds/,1,1
https://www.reddit.com/r/DCcomics/wiki/guidelines,2,1
https://www.reddit.com/r/DCcomics/wiki/guidelines#wiki_4._indicate_the_source_when_submitting_excerpts_or_artwork,12,1
https://www.reddit.com/r/DCcomics/wiki/guidelines#wiki_7._no_pirated_material,2,1
https://www.reddit.com/r/DCcomics/wiki/guidelines#wiki_3._indicate_spoilers.2C_do_not_submit_links_with_spoilers_in_text,8,1
https://www.reddit.com/r/DCcomics/wiki/guidelines#wiki_8._no_memes.2C_fluff.2C_or_other_low-effort_content,6,1
https://www.reddit.com/r/DCcomics/search?q=showcase+collection+purchases&restrict_sr=on&include_over_18=on&sort=new&t=all,2,1
https://dankahoot.com/blame?id=lr836c,1,1
http://www.shopviviano.com/products/Provel.html?revpage=5&fullSite=1,1,1
http://digregorio.beanstalkweb.com/product/provel-cheese-for-sale/,1,1
https://news.yahoo.com/aquaman-2-stupid-petition-amber-013637167.html,1,1
https://www.fr24news.com/a/2021/02/amber-heard-was-not-fired-from-aquaman-2-despite-recent-rumors.html,1,1
https://youtu.be/ln4pb7ElRYo?t=279,2,1
https://www.change.org/p/dc-entertainment-remove-amber-heard-from-aquaman-2,2,1
https://youtu.be/VDP9NVQmiXw,1,1
https://youtu.be/aca0KWoHtqQ,1,1
https://youtu.be/X7PWjY8g3gk,1,1
https://www.imdb.com/title/tt1477834/ratings?ref_=tt_ov_rt,1,1
https://www.imdb.com/title/tt8712204/ratings?ref_=tt_ov_rt,1,1
https://dankahoot.com/blame?id=libqly,1,1
https://www.reddit.com/r/OutOfTheLoop/search?q=Heard&sort=new&restrict_sr=on&t=all,1,1
http://www.reddit.com/message/compose?to=%2Fr%2FOutOfTheLoop&message=%3CPLEASE+INCLUDE+A+LINK+TO+YOUR+POST%3E,3,3
https://www.reddit.com/r/OutOfTheLoop/search?q=johnny+depp&restrict_sr=on&include_over_18=on&sort=relevance&t=all,1,1
https://www.reddit.com/r/OutOfTheLoop/comments/jq00sy/what_is_going_on_with_johnny_depp_innocent_memes/gbidmcn/,1,1
https://reddit.com/user/NoGoogleAMPBot/comments/lbz2sg/faq/,2,1
"http://www.reddit.com/message/compose?to=%2Fr%2FAskReddit&subject=Rule+1+Post+Review+Request&message=My+post+was+removed+Rule+1,+please+review%3a%0d%0a%0d%0ahttp%3A%2F%2Fwww.reddit.com/r/AskReddit/comments/lgtv8v/what_is_the_history_of_viral_reddit_campaigns_gme/",1,1
https://s.yimg.com/uu/api/res/1.2/UUoOvm107ZEleBMDmSnOww--~B/aD03Mjc7dz05NzY7YXBwaWQ9eXRhY2h5b24-/http://media.zenfs.com/en/homerun/feed_manager_auto_publish_494/35df980d14c4a65580d7d055726b85d6,1,1
https://i.insider.com/5bfd62ab48eb120f4c144173?width=1100&format=jpeg&auto=webp,1,1
http://imgur.com/a/f3qHp,1,1
http://imgur.com/a/KoNgo,1,1
http://imgur.com/a/tPMCJ,1,1
http://imgur.com/a/lONnc,1,1
http://imgur.com/a/Qwbcp,1,1
http://imgur.com/a/8Bjr8,1,1
http://imgur.com/a/TWd5q,1,1
http://imgur.com/a/1hpad,1,1
http://imgur.com/a/YpqQG,1,1
http://imgur.com/a/NlctX,1,1
http://imgur.com/a/gjPxp,1,1
http://imgur.com/a/wUV8E,1,1
http://imgur.com/a/7uGcb,1,1
http://imgur.com/a/Cnga4,1,1
http://imgur.com/a/8vhoe,1,1
http://imgur.com/a/ogOVg,1,1
http://imgur.com/a/8lHF6,1,1
http://imgur.com/a/c73vV,1,1
http://imgur.com/a/AjLHQ,1,1
http://imgur.com/a/rh3EW,1,1
http://imgur.com/a/xBUdc,1,1
http://imgur.com/a/Q5PNy,1,1
http://imgur.com/a/2OE1B,1,1
http://imgur.com/a/Hgw0Q,1,1
http://imgur.com/a/Gt8YB,1,1
http://imgur.com/a/CNg0H,1,1
http://imgur.com/a/e19Vr,1,1
http://imgur.com/a/Ofv0I,1,1
http://imgur.com/a/5wa6L,1,1
http://imgur.com/a/KUlYu,1,1
http://imgur.com/a/e0PU1,1,1
http://imgur.com/a/nlUE0,1,1
http://imgur.com/a/ySSxS,1,1
http://imgur.com/a/0rFkq,1,1
http://imgur.com/a/DZLfq,1,1
https://imgur.com/a/ZgpLlpm,1,1
http://imgur.com/a/ZUBug,1,1
http://imgur.com/a/iKGyO,1,1
http://imgur.com/a/wW9qf,1,1
http://imgur.com/a/va30d,1,1
http://imgur.com/a/ssMF4,1,1
http://imgur.com/a/mQ5KL,1,1
http://imgur.com/a/PmCj3,1,1
http://imgur.com/a/zeTht,1,1
http://imgur.com/a/vKaKS,1,1
http://imgur.com/a/OqlBz,1,1
http://imgur.com/a/VCQ5s,1,1
http://imgur.com/a/w2kUu,1,1
http://imgur.com/a/IudVj,1,1
http://imgur.com/a/1OSED,1,1
http://imgur.com/a/gnfYB,1,1
http://imgur.com/a/6GezJ,1,1
http://imgur.com/a/nJAt7,1,1
https://imgur.com/a/XSycxF9,1,1
https://www.reddit.com/r/r34robot/wiki/commands,1,1
https://www.reddit.com/r/r34robot/wiki/albums,1,1
https://www.reddit.com/r/R34Robot/comments/fvrqr1/rule34_bot_bugs/,1,1
https://www.reddit.com/r/R34Robot/comments/guedt6/rule34_bot_album_requests,1,1
https://www.reddit.com/r/R34Robot,1,1
https://www.reddit.com/user/Faustain,1,1
https://deadline.com/2021/02/johnny-depp-lawsuit-battle-elon-musk-aclu-amber-heard-adam-waldman-1234693208/,2,1
http://www.reddit.com/r/changemyview/wiki/rules#wiki_rule_e,1,1
http://www.reddit.com/message/compose?to=%2Fr%2Fchangemyview&subject=Rule+E+Appeal+JLP4yton&message=JLP4yton+would+like+to+appeal+the+removal+of+,1,1
https://old.reddit.com/r/changemyview/comments/lbflat/-/\,1,1
https://www.reddit.com/r/changemyview/wiki/modstandards,1,1
http://chng.it/Nb9ybBxHwh,2,1
https://www.dailymail.co.uk/tvshowbiz/article-8724527/Johnny-Depp-thanks-fans-support-long-interesting-episodes-life.html,2,1
https://www.the-sun.com/news/uk-news/1727405/johnny-depp-beat-amber-heard-12-times/,1,1
https://www.google.com/amp/s/www.bbc.com/news/amp/uk-53472114,1,1
https://www.itv.com/news/2020-07-27/johnny-depp-libel-trial-enters-closing-stages,1,1
https://www.youtube.com/watch?v=XiuUzvZMyro,3,2
https://www.youtube.com/watch?v=X7PWjY8g3gk&t=1s,1,1
https://www.youtube.com/watch?v=EhnKxb99Li8,1,1
https://www.youtube.com/watch?v=AiTpsdMnQkY,1,1
https://www.youtube.com/watch?v=ZfeM6J5yGBg&bpctr=1612330839,1,1
https://i.ytimg.com/vi/3OsTq58aI2A/maxresdefault.jpg,1,1
https://static.onecms.io/wp-content/uploads/sites/20/2021/01/15/bill-gates1.jpg,1,1
https://themighty.com/2018/03/katy-perry-american-idol-kiss-sexual-assault-benjamin-glaze/,1,1
https://www.allure.com/story/katy-perry-josh-kloss-sexual-misconduct-accusations-fans-react,1,1
https://www.youtube.com/watch?v=Tpy8NMonHE0,2,1
https://www.google.com/amp/s/amp.usatoday.com/amp/5443023002,1,1
https://www.google.com/amp/s/www.yahoo.com/amphtml/entertainment/amber-heard-admits-hitting-ex-163753579.html,1,1
https://www.google.com/amp/s/news.sky.com/story/amp/johnny-depp-libel-trial-amber-heard-is-a-compulsive-liar-and-unreliable-witness-court-hears-12037975,1,1
https://www.google.com/amp/s/www.ibtimes.com/johnny-depp-claims-amber-heard-has-history-domestic-abuse-perpetrator-not-victim-2919566%3famp=1,1,1
https://www.thecut.com/2016/06/amber-heards-ex-girlfriend-speaks-about-abuse.html,1,1
https://jerkofftocelebs.com/actor/brie-larson/,1,1
https://jerkofftocelebs.com/pictures/nggallery/pictures/brie-larson,1,1
https://www.reddit.com/r/BrieLarson/,1,1
https://jerkofftoporn.com/p/view_video.php?viewkey=ph5c105bfa08a03,1,1
https://www.reddit.com/r/ElizabethOlsen/,1,1
https://www.xvideos.com/video28362541/amber\_heard\_look\_alike\_plays\_with\_dildo\_on\_cam\_-\_tinyamateurcams.ml,1,1
https://www.xvideos.com/video28362541/amber_heard_look_alike_plays_with_dildo_on_cam_-_tinyamateurcams.ml,1,1
https://www.thefemaledatingstrategy.com/,1,1
https://www.thefemaledatingstrategy.com/become-a-verified-member/,1,1
https://twitter.com/FemDatStrat,1,1
https://www.instagram.com/_thefemaledatingstrategy/?hl=en,1,1
https://www.reddit.com/r/FemaleDatingStrategy/wiki/recommended_reading#wiki_the_fds_handbook,1,1
https://www.reddit.com/r/FemaleDatingStrategy/wiki/index,1,1
https://www.reddit.com/r/OutOfTheLoop/comments/77cda0/what_is_a_loop_a_primer_on_increasing_the/,1,1
discord.gg/dankmemes,2,1
https://discord.gg/dankmemes,2,1
https://www.reddit.com/r/OutOfTheLoop/search?q=amber&sort=new&restrict_sr=on&t=all,1,1
https://opdv.ny.gov/professionals/abusers/genderandipv.html,1,1
https://ncadv.org/STATISTICS,1,1
https://www.cambridge.org/core/services/aop-cambridge-core/content/view/C5432B0C6F8F61B49A4E2B60B931FA07/S175832090000620Xa.pdf/domestic\_violence\_is\_most\_commonly\_reciprocal.pdf,1,1
https://www.cambridge.org/core/services/aop-cambridge-core/content/view/C5432B0C6F8F61B49A4E2B60B931FA07/S175832090000620Xa.pdf/domestic_violence_is_most_commonly_reciprocal.pdf,1,1
https://en.wikipedia.org/wiki/Erin\_Pizzey#Refuge,1,1
https://en.wikipedia.org/wiki/Erin_Pizzey#Refuge,1,1
https://www.dailymail.co.uk/news/article-7947733/Amber-Heard-admits-hitting-ex-husband-Johnny-Depp-pelting-pots-pans-tape.html,2,1
https://www.pnas.org/content/114/30/7758,1,1
https://nobaproject.com/modules/eyewitness-testimony-and-memory-biases,1,1
https://www.scientificamerican.com/article/do-the-eyes-have-it/,1,1
https://www.bra.se/bra-in-english/home/crime-and-statistics/swedish-crime-survey.html,1,1
https://d1wqtxts1xzle7.cloudfront.net/30584629/Gender_and_Crime_Oxford_Handbook_of_Criminology.pdf?1360887876=&response-content-disposition=inline%3B+filename%3DGender_and_Crime_in_Oxford_Handbook_of_C.pdf&Expires=1614903581&Signature=Sd9qdgUjLBUEWp9BY4cUXi3srlzxOWsFRlw4eXPqpiKLY~~Lu~x6h1gJsgzu~d3ctQU8Bft8sjS8LEkFwZTRYum2sBIsv2yHKOgmvqby004evZNIh456i~RbmHjmKvo3fVEWhmeMg9mPCERMd828qE005zvZ4DPOgBtNvjt8DsYgoGrz2xHj5MsiNC9GT6bb1UTiSTNdp-da1K91Am-euIK~WWsaUGZDhOswmsQ8F65QkdApjRjImmhfprGD4AvTKfebjpW6HCkzQY7vIyRAIvkSAu4DC8FBSoD8-zjKGgZMBSIL6GOqMfoMa8DCwh-SjTxf7Jl88WwLj9IGos4AxA__&Key-Pair-Id=APKAJLOHF5GGSLRBV4ZA,1,1
https://www.un.org/en/preventgenocide/rwanda/assets/pdf/Backgrounder%20Sexual%20Violence%202014.pdf,1,1
https://www.un.org/sexualviolenceinconflict/wp-content/uploads/2019/05/report/rape-as-a-practice-of-war-toward-a-typology-of-political-violence/wood-PS-2018-rape-as-a-practice-of-war.pdf,1,1
https://en.m.wikipedia.org/wiki/International_framework_of_sexual_violence,1,1
https://i.pinimg.com/originals/12/85/e1/1285e1e809fd9da8ce59141a85ba3051.jpg,2,1
https://www.hotnewhiphop.com/amber-heard-aquaman-2-firing-story-reportedly-inaccurate-news.127559.html,2,1
https://www.standup4humanrights.org/en/hr-champions-aheard.html,2,1
https://www.instagram.com/amberheard_,2,1
https://www.Twitter.com/realamberheard,2,1
https://www.youtube.com/channel/UCB2ySslhqSI7Vd2nx0UHvSw,2,1
https://www.Facebook.com/AmberHeardOfficial,2,1
https://www.IMDB.com/name/nm1720028,2,1
https://www.google.com/search?tbm=isch&q=Amber+Heard,2,1
https://www.youtube.com/results?search_query=Amber+Heard,2,1
https://www.reddit.com/r/BeautifulFemales/search?q=Amber+Heard&restrict_sr=on&sort=new&t=all,2,1
https://www.reddit.com/message/compose/?to=littlemisfit,2,1
https://www.onlyvertical.com,1,1
https://blockfi.com/?ref=58ef83a8,1,1
https://www.binance.com/en/register?ref=12698572,1,1
https://www.reddit.com/user/waiben2/,1,1
https://old.reddit.com/user/waiben2/submitted/?sort=new,1,1
https://redd.it/ghj57g,1,1
https://www.reddit.com/message/compose?to=/r/rareinsults,1,1
https://www.reddit.com/r/JerkBuds/submit,1,1
https://www.reddit.com/message/compose?to=/r/jerkbudss&subject=Submission%20by%20u%2FBlockAccurate6714&message=Link:%20https://www.reddit.com/r/jerkbudss/comments/mvp8lm/kik_msrr122_rping_as_amber_heard/%20%20.%20.%20.%20%20What%20would%20you%20like%20to%20report%20about%20this%20post%20%20.%20.%20.%20%20,1,1
https://www.tmz.com/2016/06/07/amber-heard-domestic-violence-arrest-partner-tasya-van-ree/,1,1
https://m.huffpost.com/us/entry/us_5d8d58c5e4b0019647a5ebef,1,1
https://hollywoodlife.com/wp-content/uploads/2020/04/elizabeth-hurley-14-intro.jpg?w=1000,1,1
http://young-celebrity-photos.blogspot.com/2012/01/young-elizabeth-hurley-photos.html,1,1
https://www.psypost.org/2020/06/men-are-drawn-to-borderline-personality-traits-in-physically-attractive-women-study-finds-56961,2,1
https://www.dailymail.co.uk/news/article-7947733/amp/Amber-Heard-admits-hitting-ex-husband-Johnny-Depp-pelting-pots-pans-tape.html,1,1
https://www.cinemablend.com/news/2566055/johnny-depp-lawyer-claim-amber-heard-friends-lied-body-cam-footage,1,1
https://wegotthiscovered.com/movies/amber-heard-told-johnny-depp-victim/,1,1
https://xkcd.com/37/,1,1
https://pastebin.com/raw/vyWra3ns,1,1
https://twitter.com/ifod_net/status/1298705328108965888?lang=en,1,1
https://www.mirror.co.uk/3am/celebrity-news/amber-heards-sister-thought-was-22432412,1,1
https://twitter.com/winonasrider/status/1117117103021150208,1,1
https://theconversation.com/the-johnny-depp-libel-trial-explained-149217,6,1
https://videosift.com/video/Ass-Penies-Upright-Citizens-Brigade,1,1
https://youtu.be/dQw4w9WgXcQ,1,1
https://www.huffpost.com/entry/why-talking-about-bowies-sexual-misconduct-matters_b_9009230,2,1
https://www.bbc.com/news/world-asia-india-34265882,1,1
https://www.google.com/amp/s/www.independent.co.uk/arts-entertainment/books/features/thrill-chaste-truth-about-gandhi-s-sex-life-1937411.html%3famp,1,1
https://www.cnn.com/2020/11/02/media/johnny-depp-libel-ruling-scli-intl-gbr/index.html,4,1
https://www.indiewire.com/2018/05/ronan-farrow-moses-farrow-woody-allen-dylan-farrow-1201968121/,2,1
https://www.hollywoodreporter.com/thr-esq/city-lies-script-supervisor-defends-johnny-depp-lawsuit-alleged-set-attack-1137854,2,1
https://www.cinemablend.com/news/2456511/city-of-lies-writer-defends-johnny-depp-after-assault-accusation,2,1
https://www.independent.co.uk/arts-entertainment/books/features/thrill-chaste-truth-about-gandhi-s-sex-life-1937411.html,2,1
https://variety.com/2019/biz/news/johnny-depp-trial-gregg-brooks-assault-1203373387/,1,1
https://t.me/joinchat/S_JzkkbQwXbRjLyX,1,1
https://t.me/joinchat/TqAClGr9Vsp7VN50,1,1
https://t.me/joinchat/U3s45CTKXw0X88RM,1,1
"http://www.reddit.com/message/compose?to=%2Fr%2FAskReddit&subject=Rule+1+Post+Review+Request&message=My+post+was+removed+Rule+1,+please+review%3a%0d%0a%0d%0ahttp%3A%2F%2Fwww.reddit.com/r/AskReddit/comments/mmnsk3/what_do_people_think_of_the_whole_johnny_depp_vs/",1,1
https://www.reddit.com/r/FamosasGostosas,1,1
https://www.reddit.com/r/Rebolando_,1,1
https://www.reddit.com/r/FamosasGostosas/w/rules,1,1
https://redditsave.com/info?url=https://www.reddit.com/r/FamosasGostosas/comments/mi93k3/amber_heard/,1,1
https://www.youtube.com/watch?app=desktop&v=Cg9SvQSMnoE,2,1
