link,count,n_users,title
https://youtu.be/lLT-vCRhc0E,1,1,- YouTube
https://youtu.be/eeoc35OZnr8,1,1,Homer Simpson Has A Heart Attack - YouTube
https://youtu.be/6HvdfJEkoa8,1,1,"Homer Simpson's right, Bears are scarrey! - YouTube"
https://youtu.be/vPrYKz9DZ6E,1,1,The Simpsons - Evil Eagle! - YouTube
https://youtu.be/cvWWEwM-Yz8,1,1,Homer is Attacked by Dogs! Try Not To Laugh Challenge - YouTube
https://youtu.be/Hz_JF3oM_U0,1,1,The Simpsons - Homer Tries to Catch a Rabbit - YouTube
https://youtu.be/Sa7tTNA7t0Q,1,1,Merrin vs Pazuzu - Exorcist II - the Heretic (eerie scenes) - YouTube
https://youtu.be/KEKNcVgYhz4,1,1,Gremlins 2 (1990) - Brain Gremlin Scene (HD) - YouTube
https://youtu.be/Od3_X2XeRGo,1,1,Constantine Soldier Demon exorcism - YouTube
https://youtu.be/iaj3-avTAP8,1,1,"Christone ""Kingfish"" Ingram - Hard Times - 2/28/20 XL Live - Harrisburg, PA - YouTube"
https://youtu.be/6xcOZghoZZY,1,1,"Led Zeppelin – No Quarter [1975/05/24 @ London, England] - YouTube"
https://youtu.be/vD299nwDSRg,1,1,Johnstown Flood Movie - YouTube
https://youtu.be/OgCBUXXoDvM,1,1,The Godfather - Part II - Murder Of Don Fanucci - YouTube
https://youtu.be/WTwNzhLvRGs,1,1,Back Door Man - YouTube
https://youtu.be/-QWL-FwX4t4,1,1,Taxi Driver (5/8) Movie CLIP - You Talkin' to Me? (1976) HD - YouTube
https://youtu.be/m_9hfHvQSNo,1,1,George Michael - Father Figure (Official Video) - YouTube
https://youtu.be/diYAc7gB-0A,1,1,George Michael - Freedom! ’90 (Official Video) - YouTube
https://youtu.be/lPxP0VvaNAo,1,1,Bruce Springsteen: Something In The Night | Lyrics - YouTube
https://youtu.be/y_Cf6NVWndk,1,1,Aerial view of Ocean Grove and Asbury Park - NJ - YouTube
https://youtu.be/NG8SN9Ezu6M,1,1,Bruce Springsteen: Adam Raised A Cain | Lyrics - YouTube
https://youtu.be/8Pf8BkFLBRw,1,1,"The Godfather I (1972)- Baptism Scene, Michael Kills all the heads of the other families - YouTube"
https://youtu.be/uDVKCstnA94,1,1,Aquacraft EP-1 scale Zodiac Futura GT II - YouTube
https://youtu.be/tWbLkXhGEmo,1,1,Katy Perry - Ur So Gay (Official) - YouTube
https://youtu.be/iC42L7cS-iw,1,1,Danvers State Insane Asylum Memoir - YouTube
https://youtu.be/GQbytKkt0tg,1,1,DOVER - Serenade - YouTube
https://youtu.be/C_xeJQLePQU,1,1,Some Claim Dover Woods Neglects Residents - YouTube
https://youtu.be/nckokNx3FoQ,1,1,"East Dover - Toms River, NJ Sunrise | December 11, 2020 | DJI Mini 2 4K - YouTube"
https://yoomoney.ru/to/410011965882965,2,1,Визитка для сбора денег — ЮMoney
paypal.me/rjumin,2,1,PayPal.Me‏
https://youtu.be/gt6_2qd75F8,1,1,Christine (1983) - Christine Gets Crushed Scene (10/10) | Movieclips - YouTube
https://youtu.be/oezKQEF0deY,1,1,Christine (1983) - Show Me Scene (4/10) | Movieclips - YouTube
https://youtu.be/E0Kv6vxZwL8,1,1,The Cars - Magic (Official Music Video) - YouTube
https://youtu.be/11Q_4sejxzk,1,1,PLANT ❤️ Grow Light - Review ✅ - YouTube
https://youtu.be/gVSTHylbtXk,1,1,Little Shop Of Horrors - Grow For Me (Spanish Sub) - YouTube
https://youtu.be/CVyeyli6gzg,1,1,Goin' South (6/8) Movie CLIP - Kiss Me... I'm Rich! (1978) HD - YouTube
https://youtu.be/QBwqdA7_4lo,1,1,Elton John - Goodbye Yellow Brick Road | Lyrics - YouTube
https://youtu.be/ixjOo3w-NDo,1,1,"Airship LZ 129 Hindenburg in flight over skyline of Manhattan, New York City HD Stock Footage - YouTube"
https://youtu.be/VTz5OmAcevU,1,1,Hygiene-Conscious Gorilla Walks Around on 2 Legs to Keep His Hands Clean - YouTube
https://youtu.be/RWc8V-iKJ7s,1,1,Margot Robbie’s Beauty Routine Is Psychotically Perfect | Vogue - YouTube
https://youtu.be/s1HcU7taTbo,1,1,Did you know there's a talking gorilla? | #TalkingGorilla | BBC - YouTube
https://youtu.be/gPXonaxx3oM,1,1,- YouTube
https://youtu.be/PkVuYpH_Y1w,1,1,Police: Robin Williams hanged himself - YouTube
https://youtu.be/Aow7_naSsWM,1,1,Blood trail found in home of Trevor Tice - YouTube
https://youtu.be/Ualb32wnHtQ,1,1,Forward assist HK433 - YouTube
https://youtu.be/0fvwq6-nWiE,1,1,SIG P365 High-Capacity Micro-Compact Pistol - YouTube
https://youtu.be/ro1P_T_OEXk,1,1,Crazy girl farts funny - tiktok - YouTube
https://youtu.be/e4Fkhy_NlvY,1,1,- YouTube
https://youtu.be/JCYXyon8mB8,1,1,"Finger reimplantation - Dr. Shailesh Nisal, Dr. Amol Patel - YouTube"
https://youtu.be/kcRWyLMVrFM,1,1,Cardi B - Ring (feat. Kehlani) [Official Video] - YouTube
https://youtu.be/sB2c03F-VkA,1,1,"1959 BEATNIK POEM - Maila Nurmi (""Vampira"") - YouTube"
https://youtu.be/9fpH1cnAPIM,1,1,Beatnik poetry...Happy Days - YouTube
https://youtu.be/Vs7wW63rF6c,1,1,The Devil - YouTube
https://bit.ly/2ZxViQ4,1,1,OPPA888
https://www.facebook.com/groups/oppabet/,1,1,‏‎Best Online Casino in Asia - FREE TIPS‎‏ - مجموعة عامة | فيسبوك
https://bit.ly/3jRI49s,1,1,@oppamobile | Linktree
https://youtu.be/gKkxzoS7N2Q,1,1,Bring on The Thunder (LEGENDofTHUNDER) - YouTube
https://youtu.be/PYdYvuKtAW4,1,1,Khabib vs McGregor | Don't Get in My Way - YouTube
https://youtu.be/fEucBp85-_I,1,1,"NATO Special Forces • ""Don't Get In My Way"" - YouTube"
https://youtu.be/F9DzTVeCSi4,1,1,Special Forces | German Military | HD - YouTube
https://youtu.be/jYF392_nfaA,1,1,Swarmed By Ladyboys! Part 1. - YouTube
