link,count,n_users,title
https://www.change.org/p/%D0%BC%D0%B8%D0%B4-%D1%80%D1%84-%D1%82%D1%80%D0%B5%D0%B1%D1%83%D0%B5%D0%BC-%D0%B2%D1%8B%D1%80%D0%B0%D0%B7%D0%B8%D1%82%D1%8C-%D0%BE%D0%B1%D0%B5%D1%81%D0%BF%D0%BE%D0%BA%D0%BE%D0%B5%D0%BD%D0%BD%D0%BE%D1%81%D1%82%D1%8C-%D0%B8-%D0%BE%D0%B1%D1%81%D1%83%D0%B4%D0%B8%D1%82%D1%8C-%D0%BD%D0%B0-%D0%B3%D0%BE%D1%81%D1%83%D1%80%D0%BE%D0%B2%D0%BD%D0%B5-%D1%81%D0%B8%D1%82%D1%83%D0%B0%D1%86%D0%B8%D1%8E-%D0%B8%D0%BC-%D1%81-%D0%BC%D1%8D%D1%80%D0%B8%D0%BB%D0%B8%D0%BD%D0%BE%D0%BC-%D0%BC%D1%8D%D0%BD%D1%81%D0%BE%D0%BD%D0%BE%D0%BC?utm_content=cl_sharecopy_27402992_ru-RU%3A5&recruiter=1179297829&recruited_by_id=421d1f20-67ad-11eb-91c9-95f87b35fc98&utm_source=share_petition&utm_medium=copylink&utm_campaign=psf_combo_share_initial&utm_term=psf_combo_share_initial,2,1,Petition · Требуем выразить обеспокоенность и обсудить на гоc​.​уровне ситуацию с Мэрилином Мэнсоном · Change.org
https://www.change.org/p/loma-vista-recordings-resign-marilyn-manson-to-his-record-label?utm_content=cl_sharecopy_27200758_en-US%3A3&recruiter=1179297829&recruited_by_id=421d1f20-67ad-11eb-91c9-95f87b35fc98&utm_source=share_petition&utm_medium=copylink&utm_campaign=psf_combo_share_initial&utm_term=psf_combo_share_initial,2,1,Petition · Resign Marilyn Manson to His Record Label · Change.org
https://www.change.org/p/warner-brothers-keep-johnny-depp-as-grindelwald,2,1,Petition · Keep Johnny Depp as Grindelwald! · Change.org
https://www.facebook.com/Delihealth-101419705320022/?ref=page_internal,1,1,Delihealth
http://www.eximp.com.co/,1,1,
