link,count,n_users
https://youtu.be/hBH5O1ukpq8,11,7
https://www.change.org/p/dc-entertainment-remove-amber-heard-from-aquaman-2,10,7
https://www.change.org/p/dc-entertainment-remove-amber-heard-from-aquaman-2?redirect=false,15,5
playmovieoncinemax.blogspot.com/tt0974015/plyon,9,5
watchanddownloadnow.blogspot.com/tt0974015/wandw,6,5
moviesonfullhd.blogspot.com/tt0974015/mvif,10,5
https://www.sausageroll.com.au/lifestyle/celebrities/amber-heard-reportedly-stole-withheld-millions-from-a-childrens-hospital/,5,4
https://www.forbes.com/sites/keithflamer/2021/12/31/game-of-thrones-actress-emilia-clarke-sells-venice-california-home-for-44-million/,4,3
https://www.youtube.com/channel/UCg0C-N_MPYYOXyF4T3jMxNQ,3,3
https://www.change.org/p/walt-disney-we-want-johnny-depp-back-as-captain-jack-sparrow,8,3
https://youtu.be/uVfBxa57Kno,2,2
https://www.change.org/p/dc-entertainment-remove-amber-heard-from-aquaman-2?signed=true,2,2
https://www.youtube.com/watch?v=aca0KWoHtqQ,2,2
moviewiacin.blogspot.com/tt0974015/hd.html,4,2
https://platinum-movies-hd.blogspot.com/tt0974015/watchnow.html,4,2
https://youtu.be/EhnKxb99Li8,2,2
https://youtu.be/vUhXGWdB1II,2,2
https://www.youtube.com/playlist?list=PLgIgJBgEGi09C6I87cVb0EvWDStWmFTKO,2,2
https://youtu.be/3Dqld54iEFE,19,2
https://platinum-movies-hd.blogspot.com/tt1477834/watchnow.html,4,2
https://www.youtube.com/watch?v=V7lg69VFSY8,2,2
pleasewatchherenow.blogspot.com/tt0974015/Lsft,2,2
https://youtu.be/cn9vaL4X9sQ,2,2
playonspotmovie.blogspot.com/tt0974015/spots,2,2
www.change.org,6,2
https://ssur.cc/DXyWj,2,2
https://t.co/S4nngb5LSa,9,2
https://youtu.be/w57Tf3JS7u4,2,2
https://www.youtube.com/watch?v=hBH5O1ukpq8,6,2
thebestmovieherenow.blogspot.com/tt1477834/,4,2
playmoviesnoww.blogspot.com/tt0974015/,3,2
https://youtu.be/4sFFtZK3Dfs,1,1
https://youtu.be/pRnEDGgzmh4,1,1
https://www.youtube.com/watch?v=7MEvmnD6xaY,1,1
https://youtu.be/2C6U7Pax9F0ghuij,1,1
hotslut.live/502xxxlovelove,1,1
hotslut.live/lovedolllo11i577xxx,1,1
https://youtu.be/-PCR6CdWaI8,1,1
https://youtu.be/HbdwwoubDD8,1,1
https://youtu.be/mw3IiyXZJds,3,1
https://ssur.cc/urflirtyjoygirlteen,1,1
https://youtu.be/i-HHcosujcM,1,1
https://bit.ly/3dJEgnT,1,1
https://youtu.be/RhR_xbryXvo,1,1
https://youtu.be/XIwBFyVskAc,1,1
miniurl.es/analsexbeautifu1291xxx,1,1
https://youtu.be/BevhbYP7ht8,2,1
https://youtube.com/channel/UCIlMFob13Ubhq8g70pF3G5A,1,1
https://youtu.be/TowEm1Kl56c,1,1
https://youtu.be/DP_raVMiv98,1,1
https://youtu.be/WXaJtS0V8GI,1,1
https://youtu.be/Dstuiv1KiTU,1,1
http://tinyurl.com/Snapgirls9JOsex,1,1
https://youtu.be/BlTBmwWozlshttps://youtu.be/BlTBmwWozls,1,1
https://youtube.com/channel/UCJUwnog4XFf1KuS3XboR6hgًںککًںک‹,1,1
https://youtu.be/zHbcy7-OEaE,1,1
https://youtu.be/R_nqS0mgnjc,1,1
tinyurl.com/snapgirls8adultsexhot,1,1
https://www.youtube.com/watch?v=nG1DSz9N88o,1,1
shorturl.ca/napgirl8hotsexy,1,1
https://youtu.be/aAwIChh,1,1
https://youtu.be/R9Ls6q609Xc,1,1
https://youtu.be/0bGGfO4xJts,1,1
http://tinyurl.com/snapgrils9Suryporn,1,1
https://youtu.be/b81jfwU7ln4,1,1
https://youtu.be/IlT2T4WxT2Y,1,1
https://youtu.be/s1TdfRDNQbE,1,1
https://www.youtube.com/channel/UCaOmkUvqWyZZx61uA6foXJg?sub_confirmation=1,1,1
https://youtu.be/NxevFRvopAo,1,1
https://youtu.be/bzuyN8rWgGs,1,1
https://www.youtube.com/watch?v=1Q_e_o_d7wE,1,1
https://youtu.be/iCDbXXpoDuw,1,1
https://www.youtube.com/watch?v=8aTB7LMKWSc,1,1
https://youtu.be/bUyxri0rzRA,1,1
srv1movieplay.blogspot.com/tt1477834/,3,1
bestwowwmovie.blogspot.com/tt1477834/,1,1
genflixplaymovie.blogspot.com/tt1477834/z5Ni,2,1
playmovieoncinemax.blogspot.com/tt4123430/plyon,1,1
hotslut.live/19er0ticsexua1xxx,1,1
netflixstartmovie.blogspot.com/tt1477834/jlxA,1,1
https://youtu.be/i_HZUFROj6w,1,1
https://m.youtube.com/watch?v=QNulS324Fww,1,1
https://youtu.be/KPSTnZRy8c0,1,1
https://www.youtube.com/watch?v=jH8omSRUK10&t=1s,1,1
https://youtu.be/cQzgzeshIBw,1,1
https://youtube.com/channel/UCNRx6e6wTkTmtWuez050G8Q,1,1
https://youtu.be/gm-OsDgAWgQ,1,1
https://youtu.be/V64-PbpRGcA,1,1
t.co/Q2rLms7kGp-oreohdmovie,1,1
https://youtu.be/3u8R-B0fjLc,1,1
https://youtu.be/p5xHJB_RGRI,1,1
https://youtu.be/7rHyNJpJnzM,1,1
https://youtu.be/NNavHz3Qh4E,1,1
https://youtu.be/NlMBJLpdgro,1,1
shorturl.ca/quickdate4nakedsex66,1,1
https://tinyurl.com/beautifulasiangirls1,1,1
tinyurl.com/snapgrils9ITAsex,1,1
https://www.youtube.com/channel/UCVnoxmPpkaLa5cEjcJH0Uug,1,1
https://m.youtube.com/watch?v=kL7Pwqlmabc&t=21s,1,1
https://youtu.be/OsCFAyXY5Wg,1,1
https://www.youtube.com/watch?v=SX9l6i3kpC8&t=27s,1,1
https://www.youtube.com/watch?v=IVb7BQYxAoo,1,1
https://youtu.be/scvqeehmwSw,1,1
https://youtu.be/9zEqyhIhY60,1,1
https://youtu.be/51Db6SzyuxM,1,1
https://youtu.be/HEmAhZWcNEw,1,1
hotslut.live/2910nlixxxmasturbation,1,1
hotslut.live/germanteenxxxcams631,1,1
hotslut.live/xxxlo11ilive190,1,1
https://rotf.lol/urflirtyjoyblonde,1,1
hotslut.live/indianteenbeautifu1xxx651,1,1
hotslut.live/930beautifulxxx1oves,1,1
t.co/uJVKi9i1AX?lovesex,1,1
t.co/uJVKi9i1AX?hotmomsex,1,1
hotslut.live/masturbationm0de1xxx916,1,1
hotslut.live/xxx1ittle421teenanal,1,1
https://ifanboy.com/wp-content/uploads/2013/01/Flash-Rebirth-3-2009.jpg,1,1
hotslut.live/blowxxxlive616,1,1
hotslut.live/1oves808xxxbabies,1,1
hotslut.live/788sexdo11stripxxx,1,1
hotslut.live/animexxxloves483,1,1
hotslut.live/sexygirl211xxx0nli,1,1
https://rotf.lol/quickdate7kissingbothâ€”â€”â€”â€,1,1
https://shorturl.ca/9,1,1
https://t.co/UOLr17AALb?snapgrlsGIsex,1,1
hotslut.live/pissingface760masturbationxxx,1,1
https://hotslut.live/116indianteensexualfeetxxx,1,1
https://t.co/ttMpADHcUL?sCense,1,1
https://linkdewa.us/pornxxx*,1,1
https://www.sausageroll.com.au/lifestyle/amber-heards-involvement-in-the-johnny-depp-appeal-hearing-explained/,1,1
https://fandomwire.com/emilia-clarke-to-replace-amber-heard-as-mera-in-aquaman-2/,3,1
shorturl.ca/quickdates7porngirl,1,1
https://www.youtube.com/watch?v=t9QGgo2HvE0,6,1
https://www.scribd.com/doc/16446063/HOW-JUDGES-THINK,1,1
https://youtu.be/t9QGgo2HvE0,1,1
https://youtu.be/2C6U7Pax9F0fyhyu,1,1
https://youtube.com/channel/UC_i9Vh2cNTJKi05u4i648P,1,1
https://youtu.be/vM-Bja2Gy04,1,1
https://m.youtube.com/watch?v=9UA3TJGWSm4&feature=youtu.be,1,1
ovik.life/7539-guide*,1,1
https://www.linkedin.com/posts/jacobvarg75_my-17-year-old-son-rohan-debunked-the-relevance-activity-6757887868921872384-GjT-,1,1
https://youtu.be/wYdczqCfgJM,1,1
https://youtu.be/gbsKBziS_Ug,2,1
https://t.co/1WXlHxUklu,1,1
dirtybabes.fun/mayumi,1,1
https://dirtybabes.fun/vanesha,1,1
http://miniurl.es/snapgirl8nudehotadult18,1,1
https://t.co/qm8QKdSiXF,1,1
https://t.co/KJKQ4XKr5G?snapgrls9ZALsex,1,1
https://www.youtube.com/watch?v=PL8xn2zoQ50,1,1
https://rarible.com/token/0xd07dc4262bcdbf85190c01c996b4c06a461d2430:396884:0x9642348093d87e77d7c5818785fee59a0bbc19a0,1,1
cinemaxhdmovie.blogspot.com/tt0348150/,1,1
netflixstartmovie.blogspot.com/tt0348150/Mzip,1,1
hotslut.live/244camm0de1romanticxxx,1,1
hotslut.live/1ivexxxgirlsfeet888,1,1
moviewiacin.blogspot.com/tt0974015/kqtY,4,1
https://youtu.be/m1Y-OE2KoNI,1,1
https://youtu.be/VLFfze6isms,1,1
https://youtu.be/rOHbLrdflJ0,1,1
enjoyswatchhere.blogspot.com/tt12273684/esyy,1,1
https://m.youtube.com/watch?v=dyeXSc5v118,1,1
https://www.youtube.com/channel/UCBzQKtBpcEnStx2MjgmgyUg,1,1
https://youtu.be/s0mPhHkCMvU,1,1
https://www.youtube.com/watch?v=NLYEExrAEJI,1,1
https://youtu.be/yn1J82FeFcw,1,1
youtube.com/channel/UCsrviloHH_RvqSvRwN1vdrg,1,1
https://youtu.be/VgXNPnYutDY,1,1
https://www.facebook.com/Baba-Orukpe-solution-temple-104244528471206/,1,1
https://youtu.be/r1f88Rp6kV0,1,1
shorturl.ca/urflirtyjoyblonde29,1,1
https://youtu.be/c2ULCZxeCcg,1,1
shorturl.ca/urflirtyjoynude69,1,1
https://tinyurl.com/flirtbengsexhotpopular,1,1
tinyurl.com/flirtylondo,1,1
shorturl.ca/quickdates7hotlady25,1,1
https://tinyurl.com/snapgrls9NDRsex,1,1
https://tinyurl.com/quickdates7hotlady18,1,1
tinyurl.com/quickpornonly76,1,1
http://tinyurl.com/quickdates7kissingboth23,1,1
quickbabes.ml/manda,1,1
tinyurl.com/urlflirtyjoyfuckgilrs13,1,1
https://youtu.be/gnBwsznbDco,1,1
shorturl.ca/urlflirtyjoyfuckgilrs28,1,1
https://tinyurl.com/quick0sexxnxx,1,1
https://youtu.be/hzUpkG_8Z2A,1,1
https://youtube.com/playlist?list=PL0zUoY_CXUlQ6TVrNAI8YDd3CVdYAiKBx,6,1
https://thld.co/BLUblox_thequarteringmar,1,1
https://youtu.be/wTrTTY3IUmw,1,1
https://www.benhoarebell.co.uk/bbcs-the-trial-of-christine-keeler-what-is-perjury/,1,1
https://www.instagram.com/tv/CKJurKiAanN/?igshid=efkipshzi8v9,1,1
https://www.dailytelegraph.com.au/news/nsw/crime-week-the-black-knight-katherine-knight-stabbed-her-partner-skinned-him-and-then-tried-to-feed-him-to-his-children/news-story/e3d28a10ecf3e67ab07573b00fbe2b7b,1,1
https://youtu.be/wpF-77zE7fY,1,1
https://thld.co/SHEATH_thequartering,1,1
https://fb.watch/4Z8vmXXTi8/,1,1
https://www.cheatsheet.com/entertainment/little-house-on-the-prairie-johnny-depp-allegedly-once-asked-to-touch-melissa-gilberts-breasts.html/,1,1
www.youtube.com/watch?v=JSbGGiSe3S8,1,1
https://www.theguardian.com/film/2020/jul/14/amber-heard-shouted-insults-at-johnny-depp-high-court-told,1,1
https://www.strava.com/activities/5132353764,1,1
https://youtu.be/StnxjISyeWg,1,1
womo.life/2647-guide#050*,1,1
https://clik.cc/0Lrol,1,1
https://www.youtube.com/watch?v=kWuP8ZHpA1I&list=RDkWuP8ZHpA1I&index=1,1,1
https://www.dailymail.co.uk/news/article-9474979/amp/Johnny-Depp-says-police-bodycam-footage-PROVES-Amber-Heard-lying.html,1,1
hereforwatch.blogspot.com/tt1502404/,1,1
playonmegamovie.blogspot.com/tt1502404/AumC,1,1
https://www.letradetucancion.com/2021/02/letra-feel-away-slowthai-james-blake_9.html,1,1
https://www.letradetucancion.com/2021/02/letra-feel-away-slowthai-james-blake.html,1,1
https://m.youtube.com/watch?v=1nWKR-vBRK4,1,1
https://youtu.be/KuDXmtTWfy4,1,1
WWW.BELA,1,1
https://www.youtube.com/watch?v=d3W9GNDYyyQ,1,1
https://www.youtube.com/watch?v=HzmVBLtPCTw,1,1
https://youtu.be/8y_azToESwo,1,1
https://youtu.be/-QHVYWo60Rc,1,1
https://www.youtube.com/watch?v=x3_1FIZhxcM&t=4s,2,1
https://youtu.be/CiVPE3-jlxs,1,1
www.change.org/p/walt-disney-we-want-johnny-depp-back-as-captain-jack-sparrow,1,1
https://twitter.com/dansjoys/status/1378641305866174477?s=20,1,1
https://www.youtube.com/watch?v=mSckdiTOvUo,1,1
https://youtu.be/GbWQPpLTZUs,1,1
https://twitter.com/whystherumgone_/status/1340046611007860751,1,1
https://money.tmx.com/en/quote/ITI:US/news/74151941,1,1
https://www.chicagotribune.com/investigations/ct-yellow-light-timing-met-20141223-story.html,1,1
https://youtu.be/knbVWXzL4-4,1,1
https://www.youtube.com/watch?v=NjOKc7ZoBVw&t=189s,1,1
https://www.youtube.com/watch?v=o3qZIpSrxDU,1,1
https://drive.google.com/file/d/1Z-K1I5lao_SvvkHpY-tKb9dyCx9THIaq,1,1
https://youtu.be/wTjMqda19wk,1,1
https://youtu.be/jvQgBrQnqzk,1,1
https://www.youtube.com/watch?v=gmKUZjvIMz0,1,1
https://youtu.be/PANEcjhSfv4,1,1
https://www.youtube.com/watch?v=Etqs6OfYKpg,1,1
https://jambernews.wordpress.com/2016/06/24/amber-heard-record/,1,1
https://www.youtube.com/watch?v=nwgqEdiiNKo,1,1
https://www.youtube.com/watch?v=LKMTHdQ4iQs,2,1
https://youtu.be/Ki-Nx8JK6Ac,1,1
https://youtu.be/Q5rjhykrz9c,1,1
https://youtu.be/AqcRpVLYzHw,1,1
https://anapa-ch.ru/umerla-devochka-iz-anapy-postradavshaya-v-strashnom-dtp/,1,1
http://chng.it/vTzmqvBTfC,1,1
https://www.youtube.com/watch?v=CCe53LZie5c,1,1
https://youtu.be/0bXk9QEi19g,1,1
https://fb.watch/5alGB0kTv7/,1,1
https://youtu.be/hjfc4dZYCf4,1,1
https://youtu.be/NZrNB3tzu5Y,1,1
https://youtu.be/1CkIIcD4Eow,1,1
https://www.youtube.com/watch?v=J2N2d2ejsgg,1,1
https://youtu.be/c17GcnNC_6A,1,1
https://www.nickwallis.com/depp-trial,1,1
https://youtu.be/5cvEVivHVsU,1,1
https://www.aclu.org/,1,1
https://www.change.org/p/dc-entertainment-remove-amber-heard-from-aquaman-2/w,1,1
https://www.youtube.com/watch?v=FMpQwj2OT8Q,2,1
https://youtu.be/SqIWhW9n5Ic,1,1
https://www.youtube.com/watch?v=hQFFm_X2lps&t=887s,1,1
https://youtu.be/2Sdr65DeBGI,1,1
https://anonymousworldwide.com/2021/02/13/rose-mcgowan-joins-anonymous-bites-back-live-on-air/,3,1
https://9now.nine.com.au/60-minutes/barnaby-joyce-johnny-depp-amber-heard-perjury-charges/d5bf4fc8-8c77-4fd4-873e-2463c59f2126,2,1
https://www.sausageroll.com.au/news/amber-heard-reportedly-stole-withheld-millions-from-a-childrens-hospital/,2,1
https://www.youtube.com/watch?v=1aVvkzyNYsk,2,1
https://www.youtube.com/watch?v=HQoRXhS7vlU,2,1
https://knowledge7d.fanlink.to/ArtistPage,1,1
https://youtu.be/wk2kT1fhQTU,1,1
https://youtu.be/xXMvtT2gwog,1,1
https://boundingintocomics.com/2021/02/07/rumor-amber-heards-mera-to-join-justice-league-following-death-of-two-members-in-the-snyder-cut/,1,1
https://www.youtube.com/watch?v=t9QGgo2HvE0&t=9s,1,1
https://youtu.be/e8f4l-v4EFI,1,1
https://www.justgiving.com/fundraising/justiceforjohnnydepp,1,1
https://youtu.be/FhqOmN55Yos,1,1
https://youtu.be/eE_kFaQ3Hl4,1,1
https://www.hollywoodreporter.com/amp/features/johnny-depp-a-star-crisis-insane-story-his-missing-millions-1001513,1,1
https://youtu.be/Bht9kR5lWLU,1,1
https://www.standup4humanrights.org/en/hr-champions-aheard.html,1,1
https://youtu.be/IwauhPzdnlc,1,1
https://www.youtube.com/watch?v=pBvEQuI2FIo&list=WL&index=1i,1,1
https://twitter.com/adam_waldman/status/1347575533693931521,1,1
moviewiacin.blogspot.com/tt0974015/jxsg,1,1
https://www.youtube.com/channel/UCAxriNBFZQPTsj9vBOSnhkA,1,1
https://www.youtube.com/watch?v=4uGwvgP0G1s,1,1
https://twitter.com/dansjoys/status/1378641305866174477?s=21,1,1
https://youtu.be/pa969_ffWMU,1,1
https://youtu.be/m2v3-N0l8Ts,1,1
https://youtu.be/oeskUpXcO4c,2,1
moviewiacin.blogspot.com/tt0974015/jcnh,1,1
bestmovielisthere.blogspot.com/tt0974015/list,1,1
https://youtu.be/SQedTxjgXAA,1,1
https://greatnonprofits.org/categories/view/domestic-violence,1,1
moviesonfullhd.blogspot.com/tt0974015/.html,1,1
https://youtu.be/e9vrfEoc8_g,1,1
usmovieplay.blogspot.com/tt0974015/tsu.htmlآ,1,1
https://youtu.be/wqkdjyWVrxI,1,1
https://www.facebook.com/lvngubrthlss,1,1
https://youtu.be/0YDdlTK6jHw,1,1
https://youtu.be/H4CaTFJ6yzM,1,1
https://www.youtube.com/watch?v=hBH5O1ukpq8&feature=emb_logo,1,1
https://www.angelfire.com/blog/luster/Mythv.Reality.html,1,1
https://www.therichest.com/world-entertainment/15-things-amber-heard-wants-hidden-about-her-time-with-johnny-depp/,1,1
https://pagesix.com/2020/11/02/how-johnny-depp-judge-ruled-on-each-alleged-assault-of-amber-heard/,1,1
https://www.courttv.com/news/amber-heard-witness-statements-depp-blamed-the-monster-for-physical-verbal-abuse/,1,1
https://youtu.be/ZUa11ih4abM,1,1
https://youtu.be/o5xZThRUsUc,1,1
hotslut.live/0nlixxx5680rgy,1,1
https://youtu.be/BC646D9tsgs,1,1
https://www.youtube.com/watch?v=80JqoyaL-p4,1,1
https://youtube.com/playlist?list=PL0zUoY_CXUlSfpET5RUqaGiAETHJoOfIm,1,1
https://youtu.be/nCjMjBxWMT8,1,1
https://youtu.be/6gNQWiArDbQ,1,1
https://www.youtube.com/watch?v=_EvzvHJeZKc,1,1
https://www.youtube.com/watch?v=Cg9SvQSMnoE,1,1
https://en.wikipedia.org/wiki/Racketeer_Influenced_and_Corrupt_Organizations_Act,1,1
https://youtu.be/V7lg69VFSY8,1,1
shorturl.ca/girldatmeqfsr0,1,1
https://m.youtube.com/watch?v=nCtn6igpgP4,1,1
https://grantvsparker-restrainingorder.blogspot.com/,1,1
https://climate.nasa.gov/effects/,1,1
https://youtu.be/6dv8zJiggBs,1,1
shorturl.ca/girlsonline289na,1,1
https://www.youtube.com/watch?v=1uJh6upUkRM,1,1
https://www.google.com/amp/s/www.washingtonpost.com/opinions/ive-seen-how-institutions-protect-men-accused-of-abuse-heres-what-we-can-do/2018/12/18/71fd876a-02ed-11e9-b5df-5d3874f1ac36_story.html%3foutputType=amp,1,1
https://www.youtube.com/watch?v=dQw4w9WgXcQ,1,1
https://youtu.be/a3pKFCwVyBk,1,1
miniurl.es/kissxhotvgta3,1,1
Https://www.youtube.com/watch?v=c468aygQa,1,1
tinyurl.com/girlsxxx0qxok,1,1
https://www.google.com/url?sa=t&source=web&rct=j&url=https://m.youtube.com/watch%3Fv%3D5xInN-fZNnE&ved=2ahUKEwjOwfDz6Y7uAhVUZxUIHUrmB4wQwqsBMAB6BAgBEAM&usg=AOvVaw0GKfMVHUbWIgPHxN1K1AJv,1,1
https://twitter.com/Adam83863185?s=09,1,1
https://pagesix.com/2020/07/13/depp-cried-when-told-he-kicked-heard-during-attack-court-hears/,1,1
https://www.youtube.com/watch?v=He-DuuBPweg,2,1
https://www.youtube.com/watch?v=JKYlJXq4cqQ,1,1
https://www.youtube.com/watch?v=1UpImv8lkQc,1,1
https://youtu.be/gSua36hnobY,1,1
https://youtu.be/PzdMxhlrGBk,1,1
http://tinyurl.com/snapgirls9TANGsex,1,1
https://ref.moneyguru.co/jenniffermorataya,1,1
https://www.youtube.com/watch?v=XTFkTLaK7Hs&t=2s,1,1
http://foundertofulltime.com/,1,1
https://www.expressandstar.com/news/uk-news/2020/07/07/johnny-depp-i-was-an-easy-target-for-calculating-narcissist-amber-heard/,1,1
https://youtube.com/watch?v=JR1XIzGl2Y8&feature=share,1,1
https://youtu.be/f43bu68ajEo,1,1
tinyurl.com/Snapgrls9BANDITporn,1,1
https://www.youtube.com/watch?v=d-C468AygQA,2,1
https://www.youtube.com/watch?v=0jGAWPBulEI&t=15s,1,1
https://youtu.be/Ewkrr8CdAvM,1,1
https://curleybusinesslaw.com/when-served-a-subpoena/,1,1
https://youtu.be/IonHyxVkzh0,1,1
https://www.ncbi.nlm.nih.gov/pmc/articles/PMC1854883/,1,1
https://youtu.be/BEmXOga8fb8,1,1
https://youtu.be/ff-j05J6euUhttps://youtu.be/y2f5wY8OVo4https://youtu.be/XWbxIxmjDfU,1,1
https://www.youtube.com/channel/UCUdB0MZTVA1ujelgTRyUXIA?sub_confirmation=1,1,1
https://www.youtube.com/watch?v=LuA0IpPk0hg,1,1
https://youtu.be/z0_13IRuw8M,1,1
https://www.youtube.com/watch?v=rDuetklFtDQ,1,1
https://youtu.be/ZP_PshEihy4,1,1
https://youtu.be/X1yrLA-k-sM,1,1
https://youtu.be/lAn081CY4Ac?t=436,1,1
https://www.youtube.com/watch?v=wIyDRnXDW0s&ab_channel=ToniaThraw,1,1
nowseeherethemovie.blogspot.com/tt1477834/KwMs,1,1
https://twitter.com/brittannia_a/status/1350287604277657600?s=19,1,1
https://twitter.com/aburkhartlaw,1,1
https://www.youtube.com/channel/UCUPDc5OUo6JkoOEOnKtHUVw,1,1
https://youtube.com/playlist?list=PLcQdRMgUI_Pdl4dZHkF3rzdSxPEzS4pmq,2,1
https://youtu.be/hMVHz-1I1zY,1,1
https://youtu.be/xHC-w9oOOkA,5,1
http://chng.it/rFjHjmGGbJ,2,1
https://www.eonline.com/news/768562/amber-heard-leaves-court-visibly-bruised-after-judge-grants-johnny-depp-restraining-order,1,1
https://www.youtube.com/watch?v=Tp_xhpK6Okc,1,1
https://m.youtube.com/watch?v=EHhUh9cI7_4,1,1
https://youtu.be/I0cW7yNnVOU,1,1
https://www.youtube.com/watch?v=oakfy_yaH9I&list=PLnDQ7kf6bVly9yRc9v52DY4MsvByWw8S2,1,1
na.to/womancam4ww54,1,1
moviewiacin.blogspot.com/tt0974015/Jtjs,4,1
https://www.youtube.com/watch?v=O53dU_iGpDc,1,1
www.mudominium.net,1,1
https://youtu.be/XIOU_k4mwDw,2,1
http://bigmovies.us/sam,2,1
https://youtu.be/lJSb_VH-P_c,1,1
https://www.youtube.com/hashtag/justiceforjohnnydepp,2,1
https://www.youtube.com/watch?v=04Cz-uOognU,1,1
http://chng.it/nBgrSpXCGN,1,1
https://youtu.be/vyAh9OENJPU,5,1
https://www.youtube.com/watch?v=ZCkuZfW7rLA,1,1
https://youtu.be/MHt6n5nHiV0,1,1
https://www.youtube.com/watch?v=JCjwf9LAfXc&ab_channel=SarahDebenham,1,1
https://www.google.com/amp/s/wegotthiscovered.com/movies/amber-heard-rumored-fired-aquaman-2-breach-contract/amp/,1,1
https://www.youtube.com/watch?v=TmyAkAGj2Bg,1,1
https://youtu.be/NfUvMF-kkXU,1,1
https://youtu.be/buVElkCX3Mg,2,1
https://youtu.be/GShctSD8HNg,1,1
https://youtu.be/yRYFKcMa_EkP,1,1
https://www.change.org/p/dc-entertainment-remove-amber-heard-from-aquaman-2/sign,1,1
https://youtu.be/c9X8pZgw8Ls,1,1
https://youtu.be/G2ks3JmHPCQ,1,1
https://youtu.be/QtUtUixanOk,1,1
www.change.org/p/dc-entertainment-remove-amber-heard-from-aquaman-2,1,1
https://t.me/joinchat/Si376ERPK0u6V86R,1,1
https://youtu.be/s4zdICRrDuc,1,1
https://youtu.be/a4Ph_Y0PKIU,1,1
https://youtu.be/nbgfdu19nlw,1,1
https://www.frontiersin.org/articles/10.3389/fpsyg.2020.613410/full,1,1
ssur.cc/womanonline2g4go,1,1
https://youtu.be/5e0RiyN1KAw,1,1
https://youtu.be/eHF8qAOLHtg,1,1
nowseeherethemovie.blogspot.com/tt1477834/suLl,1,1
https://youtu.be/2Z-IY1mrFgA,3,1
https://www.change.org/p/ministry-of-justice-grant-johnny-depp-his-appeal,1,1
https://youtu.be/rBFjte7EyKI,1,1
https://youtu.be/ysDcmoHT2bw,3,1
https://youtu.be/EQ0zB4unK2k,3,1
shorturl.ca/girlsxhot1ylva,1,1
https://www.youtube.com/watch?v=ZmfopZx4LN4,1,1
https://www.youtube.com/watch?v=DyV90CjrurQ,2,1
https://www.youtube.com/watch?v=DSqa4t5oi3g&list=PLgIgJBgEGi09C6I87cVb0EvWDStWmFTKO&index=3,1,1
https://youtu.be/uretrfMA-Io,2,1
https://youtube.com/channel/UCRVPQyCDGwt-hPTMC6k6Qsg,1,1
http://chng.it/NznLhLQfXh,1,1
https://youtu.be/7mowKsGWuW4,1,1
https://www.change.org/p/warner-brothers-dc-entertainment-emilia-clarke-become-mera-to-replace-amber-heard-in-aquaman-2,1,1
ssur.cc/kissxhotsmgy5,1,1
tinyurl.com/snapxhoth3hdl,1,1
https://melmagazine.com/en-us/story/amber-heard-was-never-enough-of-a-victim,1,1
https://youtu.be/yH647fbksYU,1,1
http://chng.it/yX4ytTqBPV,1,1
https://en.m.wikipedia.org/wiki/Roscoe_Arbuckle,1,1
https://lapdonline.org/get_informed/content_basic_view/8880,1,1
https://youtu.be/dJe8bl_BLDE,1,1
https://www.reddit.com/r/OutOfTheLoop/comments/lqpbij/whats_up_with_the_vegan_teacher_that_got_banned/goj4wjk?utm_source=share&utm_medium=web2x&context=3,1,1
https://youtube.com/c/SwypesRB,1,1
https://www.youtube.com/watch?v=etUbSpDoRCU,1,1
na.to/kissxhottztl0,1,1
na.to/girlsxxxtrluv,1,1
https://youtu.be/OffPUD1QinM,2,1
bestcinemaherenow.blogspot.com/tt1477834/ogki,3,1
watchandplayhere.blogspot.com/tt1477834/GgpL,3,1
https://youtu.be/9-OUBUcj1Os,1,1
https://bit.ly/2MRDxak,1,1
https://youtu.be/6UzXiIYM2Ac,1,1
https://youtu.be/dQw4w9WgXcQ,1,1
https://in.news.yahoo.com/aquaman-2-amber-heard-fired-102634951.html,2,1
https://www.youtube.com/watch?v=b3lOpSXhT0c,1,1
http://images4.fanpop.com/image/photos/20000000/Never-Back-Down-amber-heard-20090125-500-208.jpg,1,1
https://youtu.be/xAe2T240vyY,2,1
https://ko-fi.com/irisbabilonia,1,1
https://t.co/JAstCXvhN3?vilas-full-movie,3,1
playforfull.blogspot.com/tt1477834/,5,1
http://chng.it/d45y6YTqVc,2,1
https://www.change.org/p/l-orأ©al-remove-amber-heard-as-l-orأ©al-spokeperson?signed=true,1,1
youtu.be/XQiVn8wy0iM,1,1
https://youtu.be/dp7j33MgJVM,1,1
https://www.youtube.com/watch?v=RXCpqUxe5pY,1,1
https://youtu.be/mmk6aESKYWE,1,1
https://www.nickwallis.com/depp-trial-evidence,1,1
https://youtu.be/ob2QomOgStQ,1,1
watchanddownloadnow.blogspot.com/tt1477834/wandw,2,1
playmovieoncinemax.blogspot.com/tt1477834/plyon,7,1
moviewiacin.blogspot.com/tt1477834/iljI,8,1
playonspotmovie.blogspot.com/tt1477834/spots,6,1
https://youtu.be/22N1SUZCsDo,1,1
https://youtube.com/channel/UC_i9Vh2cNTJKi05u4i648,1,1
netflixstartmovie.blogspot.com/tt1477834/html,3,1
https://www.youtube.com/watch?v=ytfbnXHsDYc,1,1
https://youtu.be/cRGkoW6EJB0,1,1
https://youtube.com/channel/UCJEN1q9pqfJU_TjUQlgRHEw,1,1
https://youtu.be/Lvv0HLyijAc,1,1
https://youtu.be/llHPAt2wPlg,1,1
www.myREdrm.com,2,1
https://youtu.be/LlBkGIUroVA,1,1
https://youtu.be/sr_nlltChuI,1,1
https://youtube.com/channel/UCEFfB8EGTj3EL6utWXTN0CQ,1,1
https://www.google.com/amp/s/www.throwbacks.com/whats-eating-gilbert-grape-facts/amp/,1,1
https://youtu.be/oVzeU7NV5D4,1,1
change.org/p/walt-disney-we-want-johnny-depp-back-as-captain-jack-sparrow,1,1
https://www.youtube.com/watch?v=mDqsgbtpDLk,1,1
https://www.youtube.com/watch?v=Tc6kj2yuIB8,1,1
https://youtu.be/gEqT9J7rBxk,1,1
https://youtu.be/8QKpgDmKaVA,1,1
https://www.youtube.com/watch?v=mzbwMAj73UQ,1,1
https://www.instagram.com/demirose/,1,1
https://www.dailymail.co.uk/news/article-9118921/amp/Johnny-Depp-accuses-Amber-Heard-taking-7M-settlement-lying-giving-charity.html?ito=amp_twitter_share-top&__twitter_impression=true,1,1
https://youtu.be/sLSBWe52Vi0,1,1
https://youtu.be/IW-oVKrHupY,1,1
https://m.youtube.com/channel/UCB4R5WYVi-nT_Bzgc_a-Ztg,1,1
https://youtu.be/Axcjv9YqYns,1,1
https://youtu.be/sJNhEPg095w,1,1
http://chng.it/9ynkPzn54G,1,1
https://youtu.be/R9CGTvf_8Cw,1,1
https://bit.ly/3txAgy1,10,1
https://www.helpguide.org/articles/mental-disorders/narcissistic-personality-disorder.htm,1,1
https://youtu.be/BZC0O9bIYjU,1,1
https://www.youtube.com/watch?v=x4linbuenh8,1,1
https://m.imdb.com/name/nm0150326/?ref_=nm_mv_close,1,1
https://www.google.com/amp/s/comicbook.com/movies/amp/news/amber-heard-aquaman-2-firing-rumors-debunked/,1,1
https://www.youtube.com/watch?v=p5CjmHLUQQI,1,1
https://youtu.be/XovI9L5eL3Q,1,1
https://youtu.be/ShVamkfkvMw,1,1
https://www.change.org/p/dc-entertainment-remove-amber-heard-from-aquaman-2?recruiter=1168561544&recruited_by_id=864679c0-3be4-11eb-91a5-f16336b6af73&utm_source=share_petition&utm_medium=copylink&utm_campaign=psf_combo_share_abi&utm_term=psf_combo_share_initial,4,1
https://www.youtube.com/watch?v=JVQS0z6UAvk&t=372s,4,1
tinyurl.com/milfdatmedqf5n,2,1
https://youtu.be/tsgJnjOYIVU,1,1
https://m.facebook.com/story.php?story_fbid=4148061888571769&id=100001039950581&sfnsn=scwspmo,1,1
https://youtu.be/h-wpBkiMKd0,1,1
https://youtu.be/N0fm42MGMGc,1,1
https://youtu.be/L_a7z9LxHMM,1,1
https://youtu.be/o-w4Ikmh-Gg,1,1
http://tinyurl.com/snapgirls9ANGsex,1,1
https://youtu.be/3R_emk-Fzh8,1,1
https://youtu.be/gEfWUbRfFR8,2,1
https://youtu.be/RksqotDUV48,1,1
https://www.youtube.com/watch?v=I_2HdTCUr_c,1,1
miniurl.es/beautiful980xxxteengirls,1,1
oncinemaxonmovie.blogspot.com/tt1477834/,5,1
iyancinemax.blogspot.com/tt1477834/PJPT,4,1
https://youtu.be/N_hQnBCstc4,1,1
hotslut.live/romanticxxxbaby816,1,1
moviesonfullhd.blogspot.com/tt1477834/mvif,3,1
playonkudelmovienow.blogspot.com/tt1477834/kudel,4,1
cinemashowhd.blogspot.com/tt1477834/isih,4,1
playmoviesnoww.blogspot.com/tt1477834/,4,1
hotslut.live/991hotgirlpussyxxx,1,1
hotslut.live/xxxasianamateurvideo119,1,1
hotslut.live/only819xxx1ovedo11,1,1
hereforwatch.blogspot.com/tt1477834/,3,1
playonmegamovie.blogspot.com/tt1477834/GfdW,2,1
nowseeherethemovie.blogspot.com/tt1477834/rvPJ,2,1
moviewiacin.blogspot.com/tt1477834/PNgB,1,1
playmovieoncinemax.blogspot.com/tt1477834/.html,1,1
moviewiacin.blogspot.com/tt1477834/.html,1,1
https://www.imdb.com/title/tt1391034/?ref_=nm_flmg_act_23,1,1
playformovie.blogspot.com/tt1477834/,3,1
https://youtu.be/tag-BM1Unck,1,1
https://youtu.be/6Bf11pWNpNA,1,1
https://youtu.be/GNtTzraFqm8,1,1
https://youtu.be/N2LGQ8wIhAQ,1,1
hotslut.live/girlsexero374xxx,1,1
https://youtu.be/KtGG2DgL7Zo,1,1
https://youtu.be/4IE1fO-qCAA,1,1
https://youtu.be/_CaDaaRW8lE,1,1
playsonmovie.blogspot.com/tt0974015/.html,3,1
https://youtu.be/S6lcD_u0qxY,1,1
https://youtu.be/ExyX3ZJvPZo,1,1
moviewiacin.blogspot.com/tt0974015/LhgI,2,1
https://youtube.com/channel/UCOLOIqb1VD3wk5k_S0HPQoQ,1,1
https://www.youtube.com/watch?v=1vVKm7vBJ7Y&t=335s*,1,1
cinemashowhd.blogspot.com/tt0974015/BZCy,2,1
https://youtube.com/watch?v=tRUcYAZxv70&feature=share,1,1
seeitfreenow.blogspot.com/tt0974015/lrmv,2,1
watchonlinenowhere.blogspot.com/tt0974015/MwJq,2,1
hereforwatch.blogspot.com/tt0974015/,2,1
https://www.youtube.com/watch?v=GCwe7XswWKo,1,1
youcanseemoviehere.blogspot.com/tt0974015/gErL,3,1
https://youtu.be/duXrqnJ3JlY,1,1
https://youtu.be/iBruE-VBXRo,2,1
https://youtu.be/NfC4VS-Rk3A,2,1
https://www.youtube.com/channel/UCzvS45zctnJjDRlpPord6qg,1,1
https://www.rollingstone.com/tv/tv-features/evan-rachel-wood-how-wild-past-personal-demons-prepped-her-for-westworld-107632/,1,1
https://www.youtube.com/watch?v=xCe6qh5kZ8Q,1,1
https://youtu.be/OHZEU5vIULI,1,1
https://youtu.be/ouyqNwV1OBA,1,1
https://youtu.be/hVC05XTFoNc,1,1
https://youtu.be/BRDEZGcgiAQ,1,1
https://youtu.be/Rel52s4s2tw,1,1
youtube.com/watch?v=frh95XBeV_o&t=538s,1,1
bestforplaynow.blogspot.com/tt0974015/,2,1
nowplayingmoviebest.blogspot.com/tt0974015/pJnL,2,1
https://www.youtube.com/watch?v=cAHkEfN2aeA,2,1
https://youtu.be/veSLFNc5oiI,1,1
https://youtu.be/wTAFngn7FYo,1,1
https://youtu.be/mvDryyvrm34,1,1
https://youtu.be/5J8PP3ZAK9Q,1,1
playonmegamovie.blogspot.com/tt0974015/stZY,2,1
https://youtu.be/6rYVnsmJdTc,1,1
https://www.youtube.com/watch?v=x3_1FIZhxcM,2,1
https://youtu.be/BF0sT27t8rU,1,1
https://youtube.com/channel/UCfkZYZc8f4Hd1oJep7b9bZQ,1,1
https://youtu.be/kQxC7CqkLEM,1,1
https://youtu.be/_xPWoeLlwDw,1,1
https://youtube.com/channel/UCxFnCORnYlMy9wjmqDv_NMQ,4,1
https://youtu.be/ENNtCLb6xD4,1,1
https://youtu.be/u2CUK-Rgdoc,1,1
tinyurl.com/snpagrls9ANsex,1,1
https://youtu.be/y9a16MwljTo,1,1
https://youtu.be/_IHmrsTqmmo,1,1
https://youtu.be/VLjGe3sZdkU,1,1
https://youtu.be/z15rsL-HYog,3,1
https://youtu.be/Q5CPVSxtn60,2,1
https://www.youtube.com/watch?v=8aTB7LMKWSc&list=PLGxHgODxXr9S-Nm0T_IQ9nofAzAm7VSfm&index=16,1,1
https://youtu.be/g-fK3cpwryE,1,1
https://youtu.be/4I89OaDq5Zg,1,1
https://youtu.be/Amq-qlqbjYA,1,1
https://youtu.be/7WH1Bsdzh7A,1,1
https://youtu.be/upz75NGuQ74,1,1
https://youtu.be/cp1ff6bV-QE,1,1
https://www.youtube.com/watch?v=nwlT2mblEFg,1,1
https://youtu.be/dILIMXErfbY,2,1
watchanddownloadnow.blogspot.com/tt0974015/.html,2,1
playmovieoncinemax.blogspot.com/tt0974015/.html,2,1
moviewiacin.blogspot.com/tt0974015/.html,2,1
http://tinyurl.com/Snapgrls9PANGsex,1,1
https://youtu.be/heX3LBVBsbQ,1,1
https://m.youtube.com/channel/UCNxHpoVUNO8N09mjN55aEaQ,3,1
https://youtu.be/bZB7ThLyqUI,1,1
https://www.youtube.com/watch?v=Atk30hjR7vo,1,1
https://t.co/e9PXGsVuZ0?playmovie,2,1
https://youtu.be/WfOJRDS-oGs,1,1
https://youtu.be/otE5GsL5DXw,1,1
https://youtube.com/channel/UCRcoEhdSF5Lrf6R6sjBRkCg,1,1
watchanddownloadnow.blogspot.com/tt0974015/wadn.html,2,1
moviesonfullhd.blogspot.com/tt0974015/yes.html,2,1
playmovieoncinemax.blogspot.com/tt0974015/wia.html,2,1
www.youtube.com/channel/UCC7y31uJvC7WekR5Rq5U0EA,1,1
https://youtu.be/37rUIhAqufw,1,1
https://youtu.be/VDP9NVQmiXw,1,1
https://m.facebook.com/story.php?story_fbid=135059548633092&id=100063871414140,1,1
forwatchmoviehere.blogspot.com/tt1477834/ejuU,3,1
https://youtu.be/rOCrXdDjS2I,1,1
https://youtu.be/zSAYnKnqL7I?t=177,1,1
shorturl.ca/kissdatmepcvc8,1,1
https://www.womensaid.org.uk/information-support/what-is-domestic-abuse/domestic-abuse-is-a-gendered-crime/,1,1
https://youtu.be/YiOyJj9h25s,1,1
https://youtu.be/jotioXU3EAw?t=364,1,1
https://youtu.be/vFuxQmxAVsc,1,1
https://youtu.be/HYgIuWNW-JA,1,1
https://www.youtube.com/watch?v=ZJXip4JlrpQ,1,1
https://youtu.be/gks6SDmeAkM,1,1
https://secure.avaaz.org/community_petitions/en/warner_brothers_and_dc_entertainment_to_completely_remove_amber_heard_from_aquaman_2_/?zqWOGrb,1,1
https://financo.com/team/laura-holden/,1,1
https://en.wikipedia.org/wiki/Postmodernism,1,1
https://instagram.com/johnnydepp?igshid=1ggkwspmv99mn,1,1
https://youtu.be/1JESFA_4MaY,1,1
https://www.youtube.com/watch?v=-m8mqQNxcAA,1,1
https://www.google.com/amp/s/www.abc.es/estilo/gente/abci-amber-heard-nueva-oradora-contra-violencia-genero-frente-judicial-abierto-johnny-depp-202012150125_noticia_amp.html,1,1
https://www.youtube.com/watch?v=VzG4rT-BDEA,1,1
https://youtu.be/_YetT1JEvV4,1,1
https://www.youtube.com/watch?v=jmzRksWdvpI,1,1
https://youtu.be/OpQYn5kfcNE,1,1
https://youtu.be/GWUMe-u9zKE?t=249,1,1
cinemaxhdmovie.blogspot.com/tt9663764/,1,1
icecinemax.blogspot.com/tt9663764/,1,1
netflixstartmovie.blogspot.com/tt9663764/NYni,1,1
icecinemax.blogspot.com/tt1477834/mhtl,2,1
moviewiacin.blogspot.com/tt1477834/hd.html,2,1
https://youtu.be/c6fFI7KmX44,1,1
https://ssur.cc/YbD4t,1,1
https://www.youtube.com/user/KiraPepelu/videos,1,1
https://youtu.be/egH6r8zidaE,1,1
https://www.patreon.com/rkoutpost,1,1
tinyurl.com/snaponlinec445n,1,1
shorturl.ca/girlshotmdx20,1,1
https://www.youtube.com/watch?v=FFkIdMXwrrU,1,1
https://youtu.be/ceLAOEibUNo,3,1
https://youtu.be/j6-_R7UYbak,1,1
shorturl.ca/womanonlineeokct,1,1
https://www.youtube.com/watch?v=oWMslxmehEg,1,1
https://www.health.com/condition/antisocial-personality-disorder/sociopath-traits,1,1
https://youtu.be/rO6EzVppfpg,1,1
https://youtu.be/UHE6t4OYOJ0,1,1
https://youtube.com/channel/UCPI3TK8asGa2BfBTykknXcg,1,1
https://www.youtube.com/watch?v=nXIDuBGVUVc,1,1
https://youtu.be/ha9gO_i8B-g,1,1
https://twitter.com/TheHighCouncil8,1,1
https://www.youtube.com/watch?v=guA6QMGKZU8&t=129s,1,1
https://youtu.be/V9O94UTDAJQ,1,1
https://www.youtube.com/watch?v=WdaIoz1p7Kk,1,1
https://youtu.be/k_QDGdbg-QQ,1,1
https://www.youtube.com/watch?v=1khEVKpz6Qw,1,1
https://youtu.be/asobojZWu8o,1,1
https://theblast.com/c/johnny-depp-amber-heard-audio-released-domestic-violence-hitting-punching-victim-recording,1,1
https://www.change.org/p/amber-heard-a-public-letter-to-amber-heard?signed=true,1,1
https://m.youtube.com/watch?v=aca0KWoHtqQ&t=1s,1,1
http://chng.it/crZmKhkC8t,1,1
https://youtu.be/el_PChGfJN8?t=194,1,1
https://www.youtube.com/watch?v=guA6QMGKZU8&t=28s,1,1
https://www.udemy.com/course/cursodeyoutube/?couponCode=028B4852D26BF472087D,1,1
https://youtu.be/iAigrAgGWfU,1,1
https://mobile.twitter.com/badqueerspod/status/1386346799401742349,1,1
https://m.huffingtonpost.fr/2016/06/08/amber-heard-tasya-van-ree-violences-conjugales-johnny-depp_n_10349556.html,1,1
https://www.usatoday.com/story/life/movies/2016/06/07/amber-heard-arrested-2009-charge-hitting-girlfriend/85563338/,1,1
https://youtu.be/XjQvk_R20r4,1,1
https://youtu.be/fJwsIB0mwLk,1,1
https://youtube.com/c/JanJasFamily,1,1
https://www.youtube.com/watch?v=jRq5TRsp4rQ&t=15s,2,1
https://www.youtube.com/watch?v=Y6gUTTOGE7M&t=1772s,1,1
https://en.m.wikipedia.org/wiki/Withnail_and_I,1,1
https://g.co/kgs/ou1RKq,1,1
https://www.webmd.com/mental-health/dissociative-identity-disorder-multiple-personality-disorder#1-2,1,1
https://www.youtube.com/watch?v=d9Z0DV33gAY,1,1
youtu.be/tExyWFakDA8,1,1
https://youtu.be/dSc3mLiOpmI,1,1
shorturl.ca/milfxx06x7f,1,1
http://tinyurl.com/snpagrls9ANsex,1,1
https://youtu.be/Ah5tXhW1OX4,1,1
https://www.youtube.com/watch?v=t9QGgo2HvE0&t=74s,1,1
https://www.youtube.com/watch?v=yOCMGkKkhnM,1,1
https://youtu.be/9jZSrxs3mrs,1,1
https://www.youtube.com/watch?v=Y8FwSj8IH4o,1,1
https://www.youtube.com/watch?v=VjQ2t_yNHQs,1,1
