link,count,n_users
https://www.change.org/p/dc-entertainment-remove-amber-heard-from-aquaman-2,27,19
https://www.change.org/p/dc-entertainment-remove-amber-heard-from-aquaman-2?recruited_by_id=fb12f490-244c-11eb-9f12-4d18c74b7bc0&utm_source=share_petition&utm_medium=copylink&utm_campaign=psf_combo_share_initial,10,7
https://www.change.org/p/dc-entertainment-remove-amber-heard-from-aquaman-2?redirect=false,25,6
https://youtu.be/aca0KWoHtqQ,8,4
https://www.youtube.com/watch?v=bYH992ynhdU,4,4
https://youtu.be/ZfeM6J5yGBg,19,3
https://www.change.org/p/dc-entertainment-remove-amber-heard-from-aquaman-2?recruiter=1104861260&utm_source=share_petition&utm_medium=copylink&utm_campaign=share_petition,4,3
https://youtu.be/uretrfMA-Io,3,3
https://youtu.be/Lc4hf4w7QXA,5,3
https://youtu.be/QQUgzIh9vsw,3,3
https://www.youtube.com/watch?v=uretrfMA-Io&ab_channel=Access,7,3
https://youtu.be/OX2l_iH6eI4,6,3
https://www.youtube.com/watch?v=aca0KWoHtqQ,3,3
http://chng.it/NgCC6bLnR7,2,2
https://youtu.be/1cDD19jV3KU,5,2
https://youtu.be/KCy4_wrm63E,2,2
https://teespring.com/buy-not-a-bot?pid=791&cid=103529,2,2
https://9gag.com/gag/aNgyDD6?ref=android,2,2
https://youtu.be/6hA_iz5tmJs,2,2
https://youtu.be/nsrt537wd8s,2,2
https://www.change.org/p/dc-entertainment-remove-amber-heard-from-aquaman-2?recruiter=1170350854&utm_source=share_petition&utm_medium=copylink&utm_campaign=share_petition&utm_term=psf_combo_share_initial,4,2
https://www.change.org/p/dc-entertainment-remove-amber-heard-from-aquaman-2?signed=true,2,2
http://chng.it/SNKFVFKzVv,2,2
https://youtu.be/XiuUzvZMyro,2,2
http://chng.it/pgY9S6LDC6,16,2
https://www.at-angys.de/jd/survey.html,2,2
https://www.change.org/p/ministry-of-justice-grant-johnny-depp-his-appeal,2,2
https://www.theguardian.com/film/2020/dec/08/johny-depp-applies-to-court-of-appeal-over-wife-beater-ruling,2,2
https://youtu.be/ELxVhdbHr7I,2,2
https://youtu.be/hzUpkG_8Z2A,2,2
https://platinum-movies-hd.blogspot.com/tt0974015/watchnow.html,2,2
https://www.dailymail.co.uk/news/article-7947733/Amber-Heard-admits-hitting-ex-husband-Johnny-Depp-pelting-pots-pans-tape.html,2,2
https://youtu.be/OLpeX4RRo28,2,2
https://youtu.be/h-wpBkiMKd0,2,2
https://www.usatoday.com/story/life/movies/2016/06/07/amber-heard-arrested-2009-charge-hitting-girlfriend/85563338/,2,2
http://chng.it/7NHt9NTppj,2,2
https://www.change.org/p/dc-entertainment-remove-amber-heard-from-aquaman-2/w,3,2
https://youtu.be/1MaDAW0jRYM,2,2
https://youtu.be/gHS-9N2i0pg,4,2
https://youtu.be/Cg9SvQSMnoE,2,2
https://youtu.be/G1urAd2UJtg,1,1
https://youtu.be/wPLv3FW6eXQ,1,1
https://www.dailymail.co.uk/news/article-8456747/Prominent-MeToo-activist-Amanda-Cadenet-drops-support-Amber-Heard.html,1,1
https://instagram.com/johnnydepprealsupportersâ€¬,1,1
https://www.youtube.com/user/Vishaldharshan,1,1
https://youtu.be/xMg9qwmvT44,1,1
https://www.youtube.com/watch?v=xM2bOxS1yQs&t=31s,1,1
https://www.youtube.com/watch?v=IoHVAyOFlWk,1,1
https://youtu.be/UWRi4iHBRnA,1,1
https://youtu.be/8RfPmTOr6E4hiiiii,1,1
https://www.youtube.com/channel/UC2By6LrOuQVQC-pwYH16H6g,1,1
https://youtu.be/IV6gLC4Pf_Y,1,1
https://youtu.be/P8GBHGgill0,1,1
t.co/Q2rLms7kGp-oreohdmovie,1,1
https://youtu.be/4aBBYzgTdnU,1,1
https://www.youtube.com/channel/UClPidqXtckfmWUIQ-S39IgQ?view_as=subscriber,1,1
https://youtu.be/tXfe0s-xkwU,1,1
https://youtu.be/kCFcobm64Xk,1,1
https://www.youtube.com/watch?v=e8OOM92WfVc,1,1
https://youtu.be/G6nVh6MDwog,2,1
https://www.youtube.com/watch?v=TCSUKIhjevo&t=1s&ab_channel=LivingWatersâ€‹,1,1
https://youtu.be/l9nnb5znggg,2,1
http://chng.it/mQ67YmzxL5,1,1
https://youtu.be/C90AcCBXbDc,1,1
https://www.youtube.com/watch?v=XhONoQeWHa4&list=PLGxHgODxXr9S-Nm0T_IQ9nofAzAm7VSfm&index=3,1,1
https://www.youtube.com/channel/UCJbJtEMxQgadDrOLizzrGYw,1,1
https://youtu.be/8OgeOJNILdk,1,1
https://youtu.be/Apu14oI8td4,1,1
https://youtu.be/U7DsMZDRsy0,1,1
https://youtu.be/4pJqe0wcZq4,1,1
https://www.youtube.com/watch?v=6EWubLFVgRc,1,1
http://chng.it/QVWDqD8mRW,2,1
https://youtu.be/CgpQrZ4Ixts,1,1
shorturl.ca/urlflirtyjoyfuckgilrs,1,1
https://youtu.be/zMe-8DLsUtQ,1,1
https://youtu.be/mxIdI6nbsMc,1,1
http://miniurl.es/quickdates7hotladyy/,2,1
https://youtu.be/dtiYbuwTV0s,1,1
tinyurl.com/Snapgrls9PANGsex,1,1
https://shopee.co.id/tokozoya,1,1
shorturl.ca/quickdates7hotlady,1,1
tinyurl.com/snapgirls9SEPsex,1,1
https://www.change.org/p/walt-disney-we-want-johnny-depp-back-as-captain-jack-sparrow,1,1
https://www.change.org/p/the-people-warner-bros-bring-johnny-depp-back-as-gellert-grindelwald-update-sign-it-to-show-your-support-to-johnny-and-screw-the-movie,1,1
https://www.youtube.com/watch?v=wKLxolAr9Fo,1,1
https://www.youtube.com/watch?v=izahzS5TABk,1,1
https://youtu.be/xP22-CMBLro,1,1
https://youtu.be/5pQvM9ZY41k,1,1
http://chng.it/GnVTbdPtK4,1,1
https://twitter.com/nickwallis/status/1341833735956787205,1,1
https://www.theguardian.com/film/2020/dec/24/johnny-depp-did-not-get-fair-trial-lawyers-tell-appeal-court,1,1
https://youtu.be/mPD3vD6n8ZI,1,1
https://youtu.be/zvdK8BScPXo,1,1
https://youtu.be/qCm6B_1GSmA,1,1
https://www.youtube.com/channel/UCvcK7byyEe17lCVZpuL3Eog/?sub-,1,1
tinyurl.com/snapgrils9ITAsex,1,1
lovepeed.ml/jessica,1,1
https://youtu.be/NHkZMn3L5rUhttps://youtu.be/NHkZMn3L5rUhttps://youtu.be/NHkZMn3L5rUhttps://youtu.be/NHkZMn3L5rUhttps://youtu.be/NHkZMn3L5rUhttps://youtu.be/NHkZMn3L5rUhttps://youtu.be/NHkZMn3L5rUhttps://youtu.be/NHkZMn3L5rUhttps://youtu.be/NHkZMn3L5rUhttps://youtu.be/NHkZMn3L5rUhttps://youtu.be/NHkZMn3L5rUhttps://youtu.be/NHkZMn3L5rUhttps://youtu.be/NHkZMn3L5rUhttps://youtu.be/NHkZMn3L5rUhttps://youtu.be/NHkZMn3L5rUhttps://youtu.be/NHkZMn3L5rUhttps://youtu.be/NHkZMn3L5rUhttps://youtu.be/NHkZMn3L5rU,1,1
tinyurl.com/quickteensex,1,1
youtu.be/NHkZMn3L5rUhttps://youtu.be/NHkZMn3L5rUhttps://youtu.be/NHkZMn3L5rUhttps://youtu.be/NHkZMn3L5rUhttps://youtu.be/NHkZMn3L5rUhttps://youtu.be/NHkZMn3L5rUhttps://youtu.be/NHkZMn3L5rUhttps://youtu.be/NHkZMn3L5rUhttps://youtu.be/NHkZMn3L5rUhttps://youtu.be/NHkZMn3L5rUhttps://youtu.be/NHkZMn3L5rUhttps://youtu.be/NHkZMn3L5rUhttps://youtu.be/NHkZMn3L5rUhttps://youtu.be/NHkZMn3L5rUhttps://youtu.be/NHkZMn3L5rUhttps://youtu.be/NHkZMn3L5rUhttps://youtu.be/NHkZMn3L5rUhttps://youtu.be/NHkZMn3L5rUhttps://youtu.be/NHkZMn3L5rU,1,1
https://youtu.be/-vrZfIt_IYk,1,1
https://www.youtube.com/playlist?list=PLih9OeoK2i1tFw8zgKU-6ruN1JxxANfDo,1,1
https://youtu.be/-0Iqx41qeXs,1,1
https://youtu.be/Ywm61BswJ7U,1,1
https://youtu.be/NoIBMmlkkJE,1,1
https://instagram.com/johnnydepprealsupporters,1,1
https://youtu.be/eNuQ4Kzh1WE,1,1
https://youtu.be/zp-VO2tzHuc,1,1
https://www.youtube.com/watch?v=52wdPJpMxZI,1,1
https://youtu.be/EVQ959kK1zE,1,1
https://youtu.be/swqQmXJZfQU,1,1
https://www.youtube.com/watch?v=7yeUCkmURbk,1,1
https://youtu.be/04Cz-uOognU,1,1
https://www.nickwallis.com/depp-trial-evidence,1,1
https://www.youtube.com/channel/UCg0C-N_MPYYOXyF4T3jMxNQ,1,1
https://youtu.be/pjQesEczrKw,1,1
miniurl.es/urflirtyjoynude17,1,1
miniurl.es/quickdates7hotladyy/,1,1
Lovepeed.ml/miyabi,1,1
shorturl.ca/urflirtyjoyporn18,1,1
https://www.youtube.com/watch?v=KilL9x6HKV4&list=PLGxHgODxXr9S-Nm0T_IQ9nofAzAm7VSfm&index=1,1,1
https://www.youtube.com/watch?v=_hCsuvdPWsk,1,1
https://youtu.be/14y_VIJ2ZbM,1,1
https://www.relationship-development.com/female-narcissistic-abuse-are-you-a-victim/,1,1
https://www.msn.com/en-gb/news/uknews/johnny-depp-applies-to-court-of-appeal-over-wife-beater-judgment/ar-BB1bKgE9?ocid=msedgntp,1,1
https://www.hollywoodreporter.com/features/hes-radioactive-inside-johnny-depps-self-made-implosion,1,1
https://www.laineygossip.com/hollywood-reporter-calls-johnny-depp-radioactive-cover-feature-reporting-on-implosion-potentially-dangerous-response/67646,1,1
https://www.youtube.com/watch?v=4Sy-9UnO_hE,1,1
https://www.dailymail.co.uk/news/article-8854937/Thousands-boys-kept-chains-tortured-abused-Islamic-schools-Sudan.html,1,1
https://m.facebook.com/story.php?story_fbid=10160569518755968&id=790010967,1,1
https://www.youtube.com/watch?v=8fvbO53mD1Y,1,1
https://youtu.be/PKv-ISdDZx4,1,1
https://youtube.com/user/almak875,1,1
https://www.youtube.com/watch?v=wfTC2o05OEw,1,1
https://youtu.be/KVND-s92sy4,1,1
https://youtu.be/v8UeNnq_dWM,1,1
lovepeed.ml/angelia,1,1
https://zulqarnainbharwana.com/johnny-depp/,1,1
https://youtu.be/0-cSfZDqUSI,1,1
https://www.youtube.com/watch?v=GXMAQ59a-ss&t=6s,1,1
https://www.dallasjustice.com/johnny-depp-falsely-accused-domestic-violence-overlap-divorce-law-criminal-defense/,1,1
https://youtu.be/0AuqMqrnr5Q,1,1
https://archive.siasat.com/news/angelina-jolie-warned-johnny-depp-not-marry-amber-heard-568373/,1,1
https://youtu.be/Fre7DF-7FcI,1,1
https://edition.cnn.com/2017/01/26/entertainment/shia-labeouf-arrested-trump-rally/index.html,1,1
https://www.change.org/p/dc-entertainment-remove-amber-heard-from-aquaman-2?recruiter=1168561544&recruited_by_id=864679c0-3be4-11eb-91a5-f16336b6af73&utm_source=share_petition&utm_medium=copylink&utm_campaign=psf_combo_share_abi&utm_term=psf_combo_share_initial,1,1
https://youtu.be/3Dqld54iEFE,1,1
https://twitter.com/morgan_pryce/status/1336210242703519745?s=21,1,1
https://saclaw.org/law-101/civil-restraining-order/,1,1
https://youtu.be/1CzGRg_htjo,1,1
https://www.tmz.com/2016/11/28/amber-heard-johnny-depp-settlement-money-donation/,1,1
https://www.instagram.com/reel/CI3SDTtDPoK/?igshid=ovcbpnjib576,1,1
https://youtu.be/bM7XaALbhwk,1,1
https://medium.com/honestly-yours/johnny-depp-amber-heard-and-the-myth-of-the-obvious-abuser-6e2d88a6f988,1,1
http://chng.it/HF2QvVNF,1,1
n.pr/support-the-tiny-desk,1,1
https://www.theguardian.com/media/2002/oct/02/dailystar.pressandpublishing,1,1
https://youtu.be/wi5SkLfcby4,1,1
https://youtu.be/En8bkdy7Em0,1,1
https://youtu.be/EppoOz_7VI8,1,1
https://www.youtube.com/watch?v=6WebOJ543WI,1,1
https://www.youtube.com/watch?v=ySUF1TBpmrQ&t=63s,1,1
https://youtu.be/1khEVKpz6Qw,1,1
https://www.youtube.com/watch?v=1xRTr5VRteU,1,1
https://youtu.be/a_DQ_4i-iAs,1,1
https://www.dior.com/en_gb/fragrance/mens-fragrance/sauvage?gclid=Cj0KCQiA8dH-BRD_ARIsAC24umbJBjpdyyPNqcYhYGKvanylN29GyHRRgQn2ZU8bFmrOHaqMHbIRHSMaAgB1EALw_wcB,1,1
https://www.youtube.com/watch?v=oQxaGm7eK4U&t=7s,1,1
https://youtube.com/BBCUkrainian,1,1
https://youtu.be/1S6m5VfzPZw,1,1
https://youtu.be/DXDGE_lRI0E,1,1
https://hoop.photo/share/QW9OYpSLzzdgHbPN4WoIJ7bJ12o2,1,1
https://youtu.be/JzNo5QjusqQ,1,1
https://youtu.be/9-HKPZMFMtw,1,1
https://apple.news/AuF6RWqxtQW6CmKyKLwGBVA,1,1
https://www.youtube.com/channel/UCDHSukTkKie2KJuBHkFLnag,1,1
https://www.youtube.com/watch?v=4Sy-9UnO_hE&t=1228s,1,1
https://youtu.be/IW-oVKrHupY,1,1
https://youtu.be/mN1B-H7i0nE,1,1
http://chng.it/ZxZTdbsGFK,1,1
https://www.nickwallis.com/depp-trial-witness-statements,1,1
https://youtu.be/pb3vJ20zTFM,1,1
https://www.youtube.com/watch?v=04Cz-uOognU&t=125s,1,1
moviewiacin.blogspot.com/tt0974015/hd.html,1,1
winamovie.blogspot.com/tt0974015/wnv.html,2,1
movincinemax.blogspot.com/tt0974015/mvx.html,2,1
usmovieplay.blogspot.com/tt0974015/tsu.html,1,1
https://www.youtube.com/watch?v=IAGz2bDlwqA&t=172s,1,1
https://youtu.be/_aB_5Rcgp_c,1,1
https://www.youtube.com/watch?v=-VUlLWeQf_8,1,1
https://www.change.org/p/dc-entertainment-remove-amber-heard-from-aquaman-2?recruiter=1083603124&utm_source=share_petition&utm_medium=twitter&utm_campaign=psf_combo_share_abi&recruited_by_id=e2fac2d0-8ae5-11ea-9524-a1fc449869f3,1,1
https://www.youtube.com/watch?v=5NF5lgfC8oQ,1,1
https://www.conceptofscience.com/search?q=mars,1,1
https://youtu.be/TV0FA3yKohI,1,1
https://t.co/NY8ULHrWGk,1,1
https://www.johnlewis.com/dior-sauvage-spray-eau-de-toilette/p2095366?sku=236346887&size=200ml&s_ppc=2dx92700053879145506&tmad=c&tmcampid=2&gclid=CjwKCAiAt9z-BRBCEiwA_bWv-ERvlt3hg1VhSTRgeM9pwGe2ZIvRzSwlQ5AAAtFnyuAQbQQZrwUsnhoCSMcQAvD_BwE&gclsrc=aw.ds,1,1
https://youtu.be/k9pbrBmHI58,1,1
https://ofcomforms.secure.force.com/formentry/SitesFormCSLEStandardsComplaints,1,1
http://chng.it/BqTXG47gZj,1,1
https://www.cdc.gov/coronavirus/2019-ncov/daily-life-coping/children/protect-children.html,1,1
https://www.pinterest.com/pin/749990144191846583,1,1
https://www.youtube.com/watch?v=_lHfE0amZpI,1,1
https://www.youtube.com/watch?v=ljYj944-Jc4,1,1
https://www.youtube.com/watch?v=TAWYQOK6lp8&lc=UgzNjCULcEiVSQqZfpV4AaABAg,1,1
https://youtu.be/Yktgx3BsoD4,3,1
https://www.youtube.com/channel/UCIrk7WOVCNOe1J0G-Q5qS-A,1,1
https://m.youtube.com/watch?v=Fnb_lnLHvPs,1,1
https://www.liverpoolecho.co.uk/news/liverpool-news/boyfriend-guilty-throttling-kicking-beloved-19472065,1,1
https://law.yale.edu/sites/default/files/area/center/isp/documents/fighting_fake_news_-_workshop_report.pdf,1,1
https://jambernews.wordpress.com/2016/06/24/amber-heard-record/,1,1
https://youtu.be/-xIv2JnE3s4,1,1
https://youtu.be/BV_5IKr8WQo,1,1
playmovieoncinemax.blogspot.com/tt0974015/wia.html,2,1
https://www.youtube.com/watch?v=V7lg69VFSY8,1,1
https://instagram.com/laurenspinz_inc?igshid=fni05mw9zbpg,1,1
https://youtu.be/cg7aApeAtJ0,1,1
https://chat.whatsapp.com/FfDEOHsr5nUAAK9AT2niX2,1,1
https://chat.whatsapp.com/LbzI6RWiHyS2oDhvXeeiaE,1,1
https://privateinternetaccess.com/TheQuarteringBF,1,1
https://youtu.be/0vzI9M-Dsls,1,1
http://chng.it/qHWVdsQZPr,1,1
https://scholar.google.com/scholar?hl=en&as_sdt=0%2C44&q=signs+of+domestic+violence&btnG=#d=gs_qabs&u=%23p%3DFGl6mZOuxIoJ,1,1
https://www.complex.com/pop-culture/2020/02/audio-recordings-amber-heard-johnny-depp-abuse,1,1
http://chng.it/gQGP7hzBjb,2,1
http://chng.it/j4QLjdKfFP,1,1
https://www.youtube.com/watch?v=FNdHrUKLdN0,1,1
https://youtu.be/0DCQLKnI964,1,1
https://youtu.be/DVbbctaYEn4,1,1
https://www.youtube.com/channel/UCc5SchWaF693cLtXYve-4Ww,1,1
https://shorturl.ca/urflirtyjoybigboob5,1,1
https://chat.whatsapp.com/KvkOsnqv4Sc7HQgiLIGtrc,1,1
http://chng.it/L2HjgJyvNn,1,1
https://youtu.be/n9Q2qpFIoBk,1,1
https://www.youtube.com/watch?v=TOqDdQmuypw,3,1
https://youtu.be/-EcEQUeNtYI,1,1
http://chng.it/CmGXX7j6J9,1,1
https://www.change.org/p/dc-entertainment-remove-amber-heard-from-aquaman-2?recruiter=921925340&utm_source=share_petition&utm_medium=copylink&utm_campaign=share_petition,1,1
https://www.change.org/su/p/dc-entertainment-remove-amber-heard-from-aquaman-2/f,1,1
https://www.change.org/p/dc-entertainment-remove-amber-heard-from-aquaman-2/sign,1,1
https://youtu.be/vyBdmnRcslY,1,1
https://www.youtube.com/watch?v=SG1xqiVzNNI,1,1
dis.gd/threads,1,1
https://www.youtube.com/watch?v=OLpeX4RRo28&list=PLz1RghP-zgs4-rHFYe6MRTpUQ4sUSklix&index=2,1,1
https://www.google.com/amp/s/www.dailymail.co.uk/news/article-7947733/amp/Amber-Heard-admits-hitting-ex-husband-Johnny-Depp-pelting-pots-pans-tape.html,1,1
https://youtu.be/EzaT9PqhmKc,1,1
http://chng.it/kSWfPnPnQx,1,1
http://chng.it/xGHx9XWRTg,1,1
twitch.tv/axlr88,1,1
https://www.giantfreakinrobot.com/cltr/amber-heard-domestic-abuse.html,1,1
https://www.sausageroll.com.au/lifestyle/celebrities/exposed-the-sun-libel-trial-judges-son-works-for-rupert-murdoch/,3,1
https://youtu.be/w57Tf3JS7u4,1,1
https://www.google.com/url?sa=t&source=web&rct=j&url=https://www.thegeekbuzz.com/the-basement/johnny-depp-titles-removed-from-netflix/&ved=0ahUKEwji65u6jfPtAhUMC-wKHc55DIoQxfQBCEYwBA&usg=AOvVaw0VF2oqeVETiBlfi1qdVRjh,1,1
https://youtu.be/0I0o9JJw2tg?t=250,1,1
https://www.youtube.com/watch?v=TV_xrEU5o2g,1,1
https://youtube.com/channel/UCG3kmTs4mSIgsHdCZRfzVCA,1,1
https://youtu.be/8TZ5DdqUVFA,2,1
https://www.change.org/p/dc-entertainment-remove-amber-heard-from-aquaman-2?recruiter=1166836687&utm_source=share_petition&utm_medium=copylink&utm_campaign=share_petition&utm_term=share_petition,1,1
https://youtu.be/Yxzd4MlhdsM,1,1
https://youtu.be/7v554QtlGKs,1,1
https://unstoppabledomains.com/r/3ca1f4812534429,1,1
https://www.youtube.com/channel/UC9ctsJZ2aD1nCexfqj342NQ,1,1
https://www.facebook.com/TheSeaWitch1990/photos/a.856953917775714/1837785666359196/,1,1
http://montrealgazette.com/news/montreal-area-man-sues-social-worker-for-breach-of-professional-conduct,1,1
https://www.news.com.au/finance/real-estate/buying/australia-will-pay-foreigners-up-to-50000-to-buy-a-new-home-as-perth-market-set-to-boom/news-story/21eebff2400bce7bad548c656aa491a4,1,1
https://www.youtube.com/watch?v=HRECVdWGEmA,1,1
https://www.youtube.com/channel/UC0gkKMGpCgyun7OoEOseryg,1,1
https://ucr.fbi.gov/crime-in-the-u.s/2018/crime-in-the-u.s.-2018/tables/expanded-homicide-data-table-6.xls,1,1
https://www.youtube.com/watch?v=VnVCHheKt28,1,1
https://youtube.com/c/lostbeyondpluto,1,1
https://www.youtube.com/watch?v=GccCWo_eZdw,1,1
http://chng.it/F82CP2Mbrx,1,1
https://www.cdc.gov/violenceprevention/datasources/nisvs/men-ipvsvandstalking.html,1,1
https://www.youtube.com/watch?v=LHYRYKCIDxk,1,1
https://youtu.be/WmCtnA8-eT8,1,1
https://www.youtube.com/watch?v=Akl3k1kcPvY,1,1
https://youtu.be/ffbN7YwLXTc,1,1
https://www.youtube.com/watch?v=upBP2UYyRZU,1,1
https://youtu.be/lslHx-nHjzc,1,1
https://youtu.be/cKlKYsvM0yI,1,1
https://youtu.be/pXA7qlDrUZM,1,1
http://chng.it/bzcwQffwpL,1,1
https://www.youtube.com/watch?v=Yxzd4MlhdsM,1,1
https://youtu.be/7YvU4zOl7pU,1,1
www.rubenarroyo.net,1,1
https://displate.com/thequartering?art=5e0b6fe4e87b0,1,1
https://www.change.org/p/l-or%C3%A9al-remove-amber-heard-as-l-or%C3%A9al-spokeperson,1,1
https://youtu.be/Ez4H5JKCPso,1,1
https://youtu.be/EuLlH9uG55A,1,1
http://chng.it/gqzkZf5XQD,1,1
http://chng.it/zYbJYWgLfK,3,1
https://youtu.be/PG4RhzuRECI,1,1
http://chng.it/yPyrgtXXgD,1,1
http://chng.it/L9wDXGN6X7,3,1
https://youtu.be/PaR6L5nMGoc,1,1
https://www.theguardian.com/film/2020/jul/15/amber-heard-antagoniser-rows-with-johnny-depp-court-told,2,1
https://www.youtube.com/watch?v=AuPUzRHuBeA&feature=sharetyghj,1,1
https://www.youtube.com/watch?v=bvRyHqfCRKM,1,1
https://youtu.be/PUlwISarxaw,1,1
https://youtu.be/aZ726JuplOs,1,1
https://youtu.be/AiTpsdMnQkY,1,1
https://vk.com/bashnya_exe,1,1
https://www.youtube.com/watch?v=7PhvDvHgwDA,1,1
https://www.youtube.com/watch?v=C65oaIHsdYM,1,1
https://youtu.be/CwOazMolKTU,2,1
https://www.youtube.com/channel/UCP9C5mrOcBsvFJt9VvOwoSQ,1,1
https://youtu.be/C42pt8fXIuw,1,1
https://www.youtube.com/watch?v=COT8RlvTuww,1,1
https://youtu.be/AsHKe7fE3bY,1,1
https://youtu.be/LKMTHdQ4iQs,1,1
https://t.co/yFhEQu0Xtr?amp=1,1,1
http://chng.it/fvyHdVw98f,4,1
https://youtu.be/xFOFlPAaxOc,1,1
https://www.businessinsider.com/11-signs-someone-is-lying-2014-4#7-they-tend-to-instinctively-cover-vulnerable-body-parts-7,1,1
https://www.youtube.com/results?search_query=%23removeamberheardfromloreal,3,1
https://siliconelovers.com/collections/wm-dolls/products/wm-156cm-h-cup-cherry-baby,1,1
https://youtu.be/wcinzmfZeCc,1,1
http://chng.it/wnJQqsdvwV,2,1
https://youtu.be/fVpEj-FSxKg,1,1
https://www.forbes.com/sites/jeetendrsehdev/2020/11/09/heres-why-dior-needs-to-ditch-brand-ambassador-johnny-depp/amp/#click=https://t.co/ZM7frDtLXl,1,1
https://youtu.be/4r8UJv97GjM,1,1
https://youtu.be/pO5Z-Ma8HAQ,1,1
https://youtu.be/myJDBos5Vyw,1,1
https://youtu.be/mR9pin2ii9I,1,1
https://black-movies.xyz/movie/464052/wonder-woman-1984.html,1,1
https://youtu.be/YXLIPdVVrxA,1,1
https://youtu.be/LxwtFHbiGbE,2,1
https://www.youtube.com/watch?v=0q_VOaSGpWA&list=PLB9ACxuvvt3VUz1ecpmb8h0EIPxLIW40J,2,1
https://youtu.be/dep3FzGiN1k,1,1
https://youtu.be/Sr2xEit4m9I,1,1
https://youtu.be/kXfxtcm6K-E,1,1
https://youtu.be/R0ySOyDB0ro,1,1
https://youtu.be/LDCmaO-hiGw,1,1
https://youtu.be/bjVX0ow1rSg,1,1
https://youtu.be/2pCRBBrGWho,1,1
https://youtu.be/qIXxO7Of_Ow,1,1
https://www.youtube.com/watch?v=xQO4Xi9w2uI&ab_channel=shiezoli,1,1
https://youtu.be/QbhvVLIz2B0,1,1
Levoiwww.youtube.com/watch?v=JSbGGiSe3S8,1,1
https://youtu.be/J5LlvnNk9BA,1,1
https://youtube.com/watch?v=Ctv46jEBORo&feature=sharedhhh,1,1
https://youtu.be/FIaH83l0QAg,1,1
https://www.youtube.com/watch?v=Toy_cgz77vc,1,1
https://youtu.be/aVOLXLDYpNU,1,1
https://www.youtube.com/watch?v=l2eO4AmgT9k&t=17s,1,1
https://www.youtube.com/watch?v=YivS2yJZ_nk,1,1
https://youtu.be/CWtS7jyhl-0,1,1
https://youtu.be/8Tgi-j56ueU,1,1
https://www.news.com.au/entertainment/celebrity-life/amber-heard-admits-hitting-exhusband-johnny-depp-in-explosive-audio-confession/news-story/46adc1ea93740088adf3ff9e0410b590,1,1
https://youtu.be/_gNG40KRWIM,1,1
https://www.change.org/p/dc-entertainment-remove-amber-heard-from-aquaman-2/,1,1
https://youtu.be/3StVX15SkkE,1,1
https://youtu.be/PTd76AMJnvs,1,1
https://youtu.be/5UV1e6D9Xe0,1,1
https://youtu.be/FT8sVzWdZEE,1,1
https://youtu.be/JOP9nmzKDww,1,1
http://chng.it/52JDjXkrxX,1,1
https://youtu.be/Qw9L6zYkuMU,1,1
https://www.google.com/amp/s/www.wikihow.com/Tie-a-Hangman%2527s-Noose%3famp=1,1,1
https://youtu.be/yvs15lnxqPk,1,1
https://www.change.org/p/dc-entertainment-remove-amber-heard-from-aquaman-2?recruiter=67359061&utm_source=share_petition&utm_medium=copylink&utm_campaign=share_petition&utm_term=psf_combo_share_initial,1,1
https://www.youtube.com/watch?v=Cg9SvQSMnoE,1,1
https://www.youtube.com/watch?v=Qw9L6zYkuMU,1,1
https://youtu.be/ZrujwmEit8A,1,1
https://youtu.be/V9O94UTDAJQ,2,1
https://youtu.be/p5CjmHLUQQI,1,1
https://youtu.be/MjGTPyTDVPI,1,1
https://youtu.be/lSNZfVhHVQ0,1,1
https://youtu.be/RAkSkMRwPYs,1,1
https://www.reddit.com/r/memes/comments/khmmgg/reddit_assemble/,1,1
http://chng.it/sZzcLjPDjt,1,1
https://www.change.org/p/dc-entertainment-remove-amber-heard-from-aquaman-2?recruiter=1006779994&utm_source=share_petition&utm_medium=copylink&utm_campaign=share_petition,1,1
https://www.youtube.com/watch?v=aca0KWoHtqQ&t=48m17s,1,1
https://youtu.be/xrg-RgF5F8o,1,1
https://www.youtube.com/watch?v=Lc4hf4w7QXA,1,1
https://youtu.be/S1dwtwmcUTg,1,1
https://www.dailymail.co.uk/news/article-7966723/Amber-Heard-ridicules-Johnny-Depp-claiming-hes-domestic-violence-victim.html,1,1
https://www.youtube.com/watch?v=NCZUqJc-jhU,1,1
https://youtu.be/hQFFm_X2lps,1,1
https://youtu.be/bqyLJ-fWbSI,1,1
https://youtu.be/KWHrGQpIWP4,1,1
https://at-angys.de/jd/survey.html,1,1
https://youtu.be/gRcj6CAhe7s,1,1
https://www.google.com/amp/s/www.dailymail.co.uk/news/article-7966723/amp/Amber-Heard-ridicules-Johnny-Depp-claiming-hes-domestic-violence-victim.html,1,1
https://www.reddit.com/r/memes/comments/kj2ioo/just_spreading_the_word/?utm_source=share&utm_medium=web2x&context=3,1,1
https://pikabu.ru/story/bombardirovka_kommentariev_7913630,1,1
https://youtu.be/Z2D1hEo30YM,1,1
https://youtu.be/33N6LS4DLT0,1,1
https://www.medicaldaily.com/domestic-violence-against-men-women-more-likely-be-intimate-terrorists-controlling-behavior-290662?fbclid=IwAR1VC-VK_VyEMlAFcUF7AZ2NDR6B4SN7Gs7BeEqe4pYT80eGYf4SRJ9uhwU,1,1
https://www.youtube.com/watch?v=GXMAQ59a-ss,1,1
